  0
SECTION
  2
HEADER
  9
$ACADVER
  1
AC1014
  9
$HANDSEED
  5
FFFF
  9
$MEASUREMENT
 70
     1
  0
ENDSEC
  0
SECTION
  2
TABLES
  0
TABLE
  2
VPORT
  5
8
330
0
100
AcDbSymbolTable
 70
     4
  0
VPORT
  5
2E
330
8
100
AcDbSymbolTableRecord
100
AcDbViewportTableRecord
  2
*ACTIVE
 70
     0
 10
0.0
 20
0.0
 11
1.0
 21
1.0
 12
210.0
 22
148.5
 13
0.0
 23
0.0
 14
10.0
 24
10.0
 15
10.0
 25
10.0
 16
0.0
 26
0.0
 36
1.0
 17
0.0
 27
0.0
 37
0.0
 40
341.0
 41
1.24
 42
50.0
 43
0.0
 44
0.0
 50
0.0
 51
0.0
 71
     0
 72
   100
 73
     1
 74
     3
 75
     0
 76
     0
 77
     0
 78
     0
  0
ENDTAB
  0
TABLE
  2
LTYPE
  5
5
330
0
100
AcDbSymbolTable
 70
     1
  0
LTYPE
  5
14
330
5
100
AcDbSymbolTableRecord
100
AcDbLinetypeTableRecord
  2
BYBLOCK
 70
     0
  3

 72
    65
 73
     0
 40
0.0
  0
LTYPE
  5
15
330
5
100
AcDbSymbolTableRecord
100
AcDbLinetypeTableRecord
  2
BYLAYER
 70
     0
  3

 72
    65
 73
     0
 40
0.0
  0
LTYPE
  5
16
330
5
100
AcDbSymbolTableRecord
100
AcDbLinetypeTableRecord
  2
CONTINUOUS
 70
     0
  3
Solid line
 72
    65
 73
     0
 40
0.0
  0
ENDTAB
  0
TABLE
  2
LAYER
  5
2
100
AcDbSymbolTable
 70
2
  0
LAYER
  5
50
100
AcDbSymbolTableRecord
100
AcDbLayerTableRecord
  2
0
 70
0
  6
CONTINUOUS
  0
LAYER
  5
51
100
AcDbSymbolTableRecord
100
AcDbLayerTableRecord
  2
Layer_1
 70
0
  6
CONTINUOUS
  0
ENDTAB
  0
TABLE
  2
STYLE
  5
3
330
0
100
AcDbSymbolTable
 70
     1
  0
STYLE
  5
11
330
3
100
AcDbSymbolTableRecord
100
AcDbTextStyleTableRecord
  2
STANDARD
 70
     0
 40
0.0
 41
1.0
 50
0.0
 71
     0
 42
2.5
  3
txt
  4

  0
ENDTAB
  0
TABLE
  2
VIEW
  5
6
330
0
100
AcDbSymbolTable
 70
     0
  0
ENDTAB
  0
TABLE
  2
UCS
  5
7
330
0
100
AcDbSymbolTable
 70
     0
  0
ENDTAB
  0
TABLE
  2
APPID
  5
9
330
0
100
AcDbSymbolTable
 70
     2
  0
APPID
  5
12
330
9
100
AcDbSymbolTableRecord
100
AcDbRegAppTableRecord
  2
ACAD
 70
     0
  0
ENDTAB
  0
TABLE
  2
DIMSTYLE
  5
A
330
0
100
AcDbSymbolTable
 70
     1
  0
DIMSTYLE
105
27
330
A
100
AcDbSymbolTableRecord
100
AcDbDimStyleTableRecord
  2
ISO-25
 70
     0
  3

  4

  5

  6

  7

 40
1.0
 41
2.5
 42
0.625
 43
3.75
 44
1.25
 45
0.0
 46
0.0
 47
0.0
 48
0.0
140
2.5
141
2.5
142
0.0
143
0.03937007874016
144
1.0
145
0.0
146
1.0
147
0.625
 71
     0
 72
     0
 73
     0
 74
     0
 75
     0
 76
     0
 77
     1
 78
     8
170
     0
171
     3
172
     1
173
     0
174
     0
175
     0
176
     0
177
     0
178
     0
270
     2
271
     2
272
     2
273
     2
274
     3
340
11
275
     0
280
     0
281
     0
282
     0
283
     0
284
     8
285
     0
286
     0
287
     3
288
     0
  0
ENDTAB
  0
TABLE
  2
BLOCK_RECORD
  5
1
330
0
100
AcDbSymbolTable
 70
     1
  0
BLOCK_RECORD
  5
1F
330
1
100
AcDbSymbolTableRecord
100
AcDbBlockTableRecord
  2
*MODEL_SPACE
  0
BLOCK_RECORD
  5
1B
330
1
100
AcDbSymbolTableRecord
100
AcDbBlockTableRecord
  2
*PAPER_SPACE
  0
ENDTAB
  0
ENDSEC
  0
SECTION
  2
BLOCKS
  0
BLOCK
  5
20
330
1F
100
AcDbEntity
  8
0
100
AcDbBlockBegin
  2
*MODEL_SPACE
 70
     0
 10
0.0
 20
0.0
 30
0.0
  3
*MODEL_SPACE
  1

  0
ENDBLK
  5
21
330
1F
100
AcDbEntity
  8
0
100
AcDbBlockEnd
  0
BLOCK
  5
1C
330
1B
100
AcDbEntity
 67
     1
  8
0
100
AcDbBlockBegin
  2
*PAPER_SPACE
  1

  0
ENDBLK
  5
1D
330
1B
100
AcDbEntity
 67
     1
  8
0
100
AcDbBlockEnd
  0
ENDSEC
  0
SECTION
  2
ENTITIES
  0
SPLINE
  5
100
100
AcDbEntity
  8
Layer_1
 62
7
100
AcDbSpline
 70
8
 71
3
 72
8
 73
4
 74
0
 40
0
 40
0
 40
0
 40
0
 40
1
 40
1
 40
1
 40
1
 10
152.757319
 20
103.054691
 30
0.0
 10
120.551308
 20
106.825762
 30
0.0
 10
100.476880
 20
119.621835
 30
0.0
 10
96.153402
 20
139.135932
 30
0.0
  0
SPLINE
  5
101
100
AcDbEntity
  8
Layer_1
 62
7
100
AcDbSpline
 70
8
 71
3
 72
8
 73
4
 74
0
 40
0
 40
0
 40
0
 40
0
 40
1
 40
1
 40
1
 40
1
 10
96.153402
 20
139.135932
 30
0.0
 10
95.122161
 20
143.790420
 30
0.0
 10
95.707084
 20
154.190083
 30
0.0
 10
97.285149
 20
159.258600
 30
0.0
  0
SPLINE
  5
102
100
AcDbEntity
  8
Layer_1
 62
7
100
AcDbSpline
 70
8
 71
3
 72
8
 73
4
 74
0
 40
0
 40
0
 40
0
 40
0
 40
1
 40
1
 40
1
 40
1
 10
97.285149
 20
159.258600
 30
0.0
 10
105.894299
 20
186.909409
 30
0.0
 10
136.999320
 20
217.004800
 30
0.0
 10
182.094583
 20
241.315376
 30
0.0
  0
SPLINE
  5
103
100
AcDbEntity
  8
Layer_1
 62
7
100
AcDbSpline
 70
8
 71
3
 72
8
 73
4
 74
0
 40
0
 40
0
 40
0
 40
0
 40
1
 40
1
 40
1
 40
1
 10
182.094583
 20
241.315376
 30
0.0
 10
223.926189
 20
263.866493
 30
0.0
 10
271.017617
 20
278.436396
 30
0.0
 10
313.704466
 20
282.035078
 30
0.0
  0
SPLINE
  5
104
100
AcDbEntity
  8
Layer_1
 62
7
100
AcDbSpline
 70
8
 71
3
 72
8
 73
4
 74
0
 40
0
 40
0
 40
0
 40
0
 40
1
 40
1
 40
1
 40
1
 10
313.704466
 20
282.035078
 30
0.0
 10
324.254025
 20
282.924465
 30
0.0
 10
344.362973
 20
282.785040
 30
0.0
 10
353.304636
 20
281.760826
 30
0.0
  0
SPLINE
  5
105
100
AcDbEntity
  8
Layer_1
 62
7
100
AcDbSpline
 70
8
 71
3
 72
8
 73
4
 74
0
 40
0
 40
0
 40
0
 40
0
 40
1
 40
1
 40
1
 40
1
 10
353.304636
 20
281.760826
 30
0.0
 10
396.029181
 20
276.865685
 30
0.0
 10
416.561427
 20
257.883168
 30
0.0
 10
409.828945
 20
229.502795
 30
0.0
  0
SPLINE
  5
106
100
AcDbEntity
  8
Layer_1
 62
7
100
AcDbSpline
 70
8
 71
3
 72
8
 73
4
 74
0
 40
0
 40
0
 40
0
 40
0
 40
1
 40
1
 40
1
 40
1
 10
409.828945
 20
229.502795
 30
0.0
 10
409.075411
 20
226.326047
 30
0.0
 10
407.079622
 20
221.260252
 30
0.0
 10
406.581632
 20
221.260252
 30
0.0
  0
SPLINE
  5
107
100
AcDbEntity
  8
Layer_1
 62
7
100
AcDbSpline
 70
8
 71
3
 72
8
 73
4
 74
0
 40
0
 40
0
 40
0
 40
0
 40
1
 40
1
 40
1
 40
1
 10
406.581632
 20
221.260252
 30
0.0
 10
406.482703
 20
221.260252
 30
0.0
 10
406.424309
 20
224.884565
 30
0.0
 10
406.451238
 20
229.314336
 30
0.0
  0
SPLINE
  5
108
100
AcDbEntity
  8
Layer_1
 62
7
100
AcDbSpline
 70
8
 71
3
 72
8
 73
4
 74
0
 40
0
 40
0
 40
0
 40
0
 40
1
 40
1
 40
1
 40
1
 10
406.451238
 20
229.314336
 30
0.0
 10
406.498293
 20
237.205230
 30
0.0
 10
406.465411
 20
237.453783
 30
0.0
 10
404.632586
 20
241.581084
 30
0.0
  0
SPLINE
  5
109
100
AcDbEntity
  8
Layer_1
 62
7
100
AcDbSpline
 70
8
 71
3
 72
8
 73
4
 74
0
 40
0
 40
0
 40
0
 40
0
 40
1
 40
1
 40
1
 40
1
 10
404.632586
 20
241.581084
 30
0.0
 10
403.243298
 20
244.715689
 30
0.0
 10
401.636621
 20
246.971174
 30
0.0
 10
398.354356
 20
250.394967
 30
0.0
  0
SPLINE
  5
10a
100
AcDbEntity
  8
Layer_1
 62
7
100
AcDbSpline
 70
8
 71
3
 72
8
 73
4
 74
0
 40
0
 40
0
 40
0
 40
0
 40
1
 40
1
 40
1
 40
1
 10
398.354356
 20
250.394967
 30
0.0
 10
389.470350
 20
259.662010
 30
0.0
 10
377.989978
 20
264.833130
 30
0.0
 10
359.563080
 20
267.867938
 30
0.0
  0
SPLINE
  5
10b
100
AcDbEntity
  8
Layer_1
 62
7
100
AcDbSpline
 70
8
 71
3
 72
8
 73
4
 74
0
 40
0
 40
0
 40
0
 40
0
 40
1
 40
1
 40
1
 40
1
 10
359.563080
 20
267.867938
 30
0.0
 10
350.623629
 20
269.340222
 30
0.0
 10
325.603770
 20
269.313012
 30
0.0
 10
312.626479
 20
267.817680
 30
0.0
  0
SPLINE
  5
10c
100
AcDbEntity
  8
Layer_1
 62
7
100
AcDbSpline
 70
8
 71
3
 72
8
 73
4
 74
0
 40
0
 40
0
 40
0
 40
0
 40
1
 40
1
 40
1
 40
1
 10
312.626479
 20
267.817680
 30
0.0
 10
277.641532
 20
263.784501
 30
0.0
 10
241.725448
 20
253.045460
 30
0.0
 10
208.851600
 20
236.788608
 30
0.0
  0
SPLINE
  5
10d
100
AcDbEntity
  8
Layer_1
 62
7
100
AcDbSpline
 70
8
 71
3
 72
8
 73
4
 74
0
 40
0
 40
0
 40
0
 40
0
 40
1
 40
1
 40
1
 40
1
 10
208.851600
 20
236.788608
 30
0.0
 10
165.243970
 20
215.223582
 30
0.0
 10
133.839951
 20
185.748208
 30
0.0
 10
127.775297
 20
160.691485
 30
0.0
  0
SPLINE
  5
10e
100
AcDbEntity
  8
Layer_1
 62
7
100
AcDbSpline
 70
8
 71
3
 72
8
 73
4
 74
0
 40
0
 40
0
 40
0
 40
0
 40
1
 40
1
 40
1
 40
1
 10
127.775297
 20
160.691485
 30
0.0
 10
126.525091
 20
155.526109
 30
0.0
 10
126.603327
 20
147.522855
 30
0.0
 10
127.949203
 20
142.902751
 30
0.0
  0
SPLINE
  5
10f
100
AcDbEntity
  8
Layer_1
 62
7
100
AcDbSpline
 70
8
 71
3
 72
8
 73
4
 74
0
 40
0
 40
0
 40
0
 40
0
 40
1
 40
1
 40
1
 40
1
 10
127.949203
 20
142.902751
 30
0.0
 10
134.147612
 20
121.624483
 30
0.0
 10
164.843684
 20
109.793154
 30
0.0
 10
208.338459
 20
111.917835
 30
0.0
  0
SPLINE
  5
110
100
AcDbEntity
  8
Layer_1
 62
7
100
AcDbSpline
 70
8
 71
3
 72
8
 73
4
 74
0
 40
0
 40
0
 40
0
 40
0
 40
1
 40
1
 40
1
 40
1
 10
208.338459
 20
111.917835
 30
0.0
 10
230.312969
 20
112.991287
 30
0.0
 10
251.287955
 20
116.865964
 30
0.0
 10
277.089382
 20
124.618011
 30
0.0
  0
SPLINE
  5
111
100
AcDbEntity
  8
Layer_1
 62
7
100
AcDbSpline
 70
8
 71
3
 72
8
 73
4
 74
0
 40
0
 40
0
 40
0
 40
0
 40
1
 40
1
 40
1
 40
1
 10
277.089382
 20
124.618011
 30
0.0
 10
283.753515
 20
126.620263
 30
0.0
 10
289.312510
 20
128.144594
 30
0.0
 10
289.442734
 20
128.005526
 30
0.0
  0
SPLINE
  5
112
100
AcDbEntity
  8
Layer_1
 62
7
100
AcDbSpline
 70
8
 71
3
 72
8
 73
4
 74
0
 40
0
 40
0
 40
0
 40
0
 40
1
 40
1
 40
1
 40
1
 10
289.442734
 20
128.005526
 30
0.0
 10
290.037443
 20
127.370169
 30
0.0
 10
277.578906
 20
122.354631
 30
0.0
 10
265.120984
 20
118.213951
 30
0.0
  0
SPLINE
  5
113
100
AcDbEntity
  8
Layer_1
 62
7
100
AcDbSpline
 70
8
 71
3
 72
8
 73
4
 74
0
 40
0
 40
0
 40
0
 40
0
 40
1
 40
1
 40
1
 40
1
 10
265.120984
 20
118.213951
 30
0.0
 10
241.612763
 20
110.400676
 30
0.0
 10
214.151671
 20
104.581488
 30
0.0
 10
192.073268
 20
102.734631
 30
0.0
  0
SPLINE
  5
114
100
AcDbEntity
  8
Layer_1
 62
7
100
AcDbSpline
 70
8
 71
3
 72
8
 73
4
 74
0
 40
0
 40
0
 40
0
 40
0
 40
1
 40
1
 40
1
 40
1
 10
192.073268
 20
102.734631
 30
0.0
 10
182.146849
 20
101.904335
 30
0.0
 10
161.124280
 20
102.076285
 30
0.0
 10
152.757583
 20
103.055570
 30
0.0
  0
LWPOLYLINE
  5
115
100
AcDbEntity
  8
Layer_1
 62
7
100
AcDbPolyline
 90
8
 70
1
 10
0.000000
 20
182.357164
 30
0.0
 10
0.000000
 20
364.714299
 30
0.0
 10
284.464274
 20
364.714299
 30
0.0
 10
568.928536
 20
364.714299
 30
0.0
 10
568.928536
 20
182.357164
 30
0.0
 10
568.928536
 20
0.000014
 30
0.0
 10
284.464274
 20
0.000014
 30
0.0
 10
0.000000
 20
0.000014
 30
0.0
  0
SPLINE
  5
116
100
AcDbEntity
  8
Layer_1
 62
7
100
AcDbSpline
 70
8
 71
3
 72
8
 73
4
 74
0
 40
0
 40
0
 40
0
 40
0
 40
1
 40
1
 40
1
 40
1
 10
376.669742
 20
103.184802
 30
0.0
 10
374.292608
 20
104.478959
 30
0.0
 10
372.161266
 20
108.452679
 30
0.0
 10
373.042274
 20
109.947869
 30
0.0
  0
SPLINE
  5
117
100
AcDbEntity
  8
Layer_1
 62
7
100
AcDbSpline
 70
8
 71
3
 72
8
 73
4
 74
0
 40
0
 40
0
 40
0
 40
0
 40
1
 40
1
 40
1
 40
1
 10
373.042274
 20
109.947869
 30
0.0
 10
373.643021
 20
110.967718
 30
0.0
 10
376.377235
 20
111.811932
 30
0.0
 10
377.626350
 20
111.363293
 30
0.0
  0
SPLINE
  5
118
100
AcDbEntity
  8
Layer_1
 62
7
100
AcDbSpline
 70
8
 71
3
 72
8
 73
4
 74
0
 40
0
 40
0
 40
0
 40
0
 40
1
 40
1
 40
1
 40
1
 10
377.626350
 20
111.363293
 30
0.0
 10
378.017417
 20
111.222694
 30
0.0
 10
378.337477
 20
110.505557
 30
0.0
 10
378.337477
 20
109.769457
 30
0.0
  0
SPLINE
  5
119
100
AcDbEntity
  8
Layer_1
 62
7
100
AcDbSpline
 70
8
 71
3
 72
8
 73
4
 74
0
 40
0
 40
0
 40
0
 40
0
 40
1
 40
1
 40
1
 40
1
 10
378.337477
 20
109.769457
 30
0.0
 10
378.337477
 20
107.848672
 30
0.0
 10
379.688725
 20
106.099214
 30
0.0
 10
380.815411
 20
106.561205
 30
0.0
  0
SPLINE
  5
11a
100
AcDbEntity
  8
Layer_1
 62
7
100
AcDbSpline
 70
8
 71
3
 72
8
 73
4
 74
0
 40
0
 40
0
 40
0
 40
0
 40
1
 40
1
 40
1
 40
1
 10
380.815411
 20
106.561205
 30
0.0
 10
381.900769
 20
107.006329
 30
0.0
 10
382.031389
 20
108.916540
 30
0.0
 10
381.107040
 20
110.822046
 30
0.0
  0
SPLINE
  5
11b
100
AcDbEntity
  8
Layer_1
 62
7
100
AcDbSpline
 70
8
 71
3
 72
8
 73
4
 74
0
 40
0
 40
0
 40
0
 40
0
 40
1
 40
1
 40
1
 40
1
 10
381.107040
 20
110.822046
 30
0.0
 10
380.752936
 20
111.552250
 30
0.0
 10
378.847629
 20
113.952827
 30
0.0
 10
376.873468
 20
116.156707
 30
0.0
  0
SPLINE
  5
11c
100
AcDbEntity
  8
Layer_1
 62
7
100
AcDbSpline
 70
8
 71
3
 72
8
 73
4
 74
0
 40
0
 40
0
 40
0
 40
0
 40
1
 40
1
 40
1
 40
1
 10
376.873468
 20
116.156707
 30
0.0
 10
373.042359
 20
120.433620
 30
0.0
 10
372.311984
 20
122.160203
 30
0.0
 10
372.846202
 20
125.677403
 30
0.0
  0
SPLINE
  5
11d
100
AcDbEntity
  8
Layer_1
 62
7
100
AcDbSpline
 70
8
 71
3
 72
8
 73
4
 74
0
 40
0
 40
0
 40
0
 40
0
 40
1
 40
1
 40
1
 40
1
 10
372.846202
 20
125.677403
 30
0.0
 10
373.795496
 20
131.927513
 30
0.0
 10
382.037172
 20
134.052676
 30
0.0
 10
385.753052
 20
129.005476
 30
0.0
  0
SPLINE
  5
11e
100
AcDbEntity
  8
Layer_1
 62
7
100
AcDbSpline
 70
8
 71
3
 72
8
 73
4
 74
0
 40
0
 40
0
 40
0
 40
0
 40
1
 40
1
 40
1
 40
1
 10
385.753052
 20
129.005476
 30
0.0
 10
387.317720
 20
126.880228
 30
0.0
 10
387.236422
 20
124.249195
 30
0.0
 10
385.591761
 20
123.778219
 30
0.0
  0
SPLINE
  5
11f
100
AcDbEntity
  8
Layer_1
 62
7
100
AcDbSpline
 70
8
 71
3
 72
8
 73
4
 74
0
 40
0
 40
0
 40
0
 40
0
 40
1
 40
1
 40
1
 40
1
 10
385.591761
 20
123.778219
 30
0.0
 10
382.747222
 20
122.963712
 30
0.0
 10
381.803654
 20
123.314443
 30
0.0
 10
381.304898
 20
125.370609
 30
0.0
  0
SPLINE
  5
120
100
AcDbEntity
  8
Layer_1
 62
7
100
AcDbSpline
 70
8
 71
3
 72
8
 73
4
 74
0
 40
0
 40
0
 40
0
 40
0
 40
1
 40
1
 40
1
 40
1
 10
381.304898
 20
125.370609
 30
0.0
 10
380.628636
 20
128.159022
 30
0.0
 10
378.693651
 20
128.138357
 30
0.0
 10
378.442019
 20
125.341980
 30
0.0
  0
SPLINE
  5
121
100
AcDbEntity
  8
Layer_1
 62
7
100
AcDbSpline
 70
8
 71
3
 72
8
 73
4
 74
0
 40
0
 40
0
 40
0
 40
0
 40
1
 40
1
 40
1
 40
1
 10
378.442019
 20
125.341980
 30
0.0
 10
378.284129
 20
123.585123
 30
0.0
 10
378.690051
 20
122.884030
 30
0.0
 10
381.709033
 20
119.698030
 30
0.0
  0
SPLINE
  5
122
100
AcDbEntity
  8
Layer_1
 62
7
100
AcDbSpline
 70
8
 71
3
 72
8
 73
4
 74
0
 40
0
 40
0
 40
0
 40
0
 40
1
 40
1
 40
1
 40
1
 10
381.709033
 20
119.698030
 30
0.0
 10
385.784488
 20
115.397419
 30
0.0
 10
386.964240
 20
113.190676
 30
0.0
 10
387.012570
 20
109.778017
 30
0.0
  0
SPLINE
  5
123
100
AcDbEntity
  8
Layer_1
 62
7
100
AcDbSpline
 70
8
 71
3
 72
8
 73
4
 74
0
 40
0
 40
0
 40
0
 40
0
 40
1
 40
1
 40
1
 40
1
 10
387.012570
 20
109.778017
 30
0.0
 10
387.059625
 20
106.628839
 30
0.0
 10
386.173685
 20
104.822150
 30
0.0
 10
383.848680
 20
103.307513
 30
0.0
  0
SPLINE
  5
124
100
AcDbEntity
  8
Layer_1
 62
7
100
AcDbSpline
 70
8
 71
3
 72
8
 73
4
 74
0
 40
0
 40
0
 40
0
 40
0
 40
1
 40
1
 40
1
 40
1
 10
383.848680
 20
103.307513
 30
0.0
 10
381.600041
 20
101.842540
 30
0.0
 10
379.212958
 20
101.802402
 30
0.0
 10
376.670195
 20
103.186757
 30
0.0
  0
LWPOLYLINE
  5
125
100
AcDbEntity
  8
Layer_1
 62
7
100
AcDbPolyline
 90
2
 70
0
 10
152.757583
 20
103.055570
 30
0.0
 10
152.757319
 20
103.054691
 30
0.0
  0
SPLINE
  5
126
100
AcDbEntity
  8
Layer_1
 62
7
100
AcDbSpline
 70
8
 71
3
 72
8
 73
4
 74
0
 40
0
 40
0
 40
0
 40
0
 40
1
 40
1
 40
1
 40
1
 10
320.763981
 20
102.845211
 30
0.0
 10
320.703603
 20
102.947825
 30
0.0
 10
320.510564
 20
108.502795
 30
0.0
 10
320.337282
 20
115.189214
 30
0.0
  0
LWPOLYLINE
  5
127
100
AcDbEntity
  8
Layer_1
 62
7
100
AcDbPolyline
 90
2
 70
0
 10
376.670195
 20
103.186757
 30
0.0
 10
376.669742
 20
103.184802
 30
0.0
  0
SPLINE
  5
128
100
AcDbEntity
  8
Layer_1
 62
7
100
AcDbSpline
 70
8
 71
3
 72
8
 73
4
 74
0
 40
0
 40
0
 40
0
 40
0
 40
1
 40
1
 40
1
 40
1
 10
318.457600
 20
127.538858
 30
0.0
 10
317.142892
 20
127.700433
 30
0.0
 10
316.892989
 20
128.019161
 30
0.0
 10
316.892989
 20
129.534307
 30
0.0
  0
LWPOLYLINE
  5
129
100
AcDbEntity
  8
Layer_1
 62
7
100
AcDbPolyline
 90
3
 70
0
 10
320.337282
 20
115.189214
 30
0.0
 10
320.022126
 20
127.346386
 30
0.0
 10
318.457600
 20
127.538858
 30
0.0
  0
SPLINE
  5
12a
100
AcDbEntity
  8
Layer_1
 62
7
100
AcDbSpline
 70
8
 71
3
 72
8
 73
4
 74
0
 40
0
 40
0
 40
0
 40
0
 40
1
 40
1
 40
1
 40
1
 10
323.293449
 20
131.165929
 30
0.0
 10
329.652778
 20
130.995000
 30
0.0
 10
329.693880
 20
130.984228
 30
0.0
 10
329.693880
 20
129.513019
 30
0.0
  0
SPLINE
  5
12b
100
AcDbEntity
  8
Layer_1
 62
7
100
AcDbSpline
 70
8
 71
3
 72
8
 73
4
 74
0
 40
0
 40
0
 40
0
 40
0
 40
1
 40
1
 40
1
 40
1
 10
329.693880
 20
129.513019
 30
0.0
 10
329.693880
 20
128.354414
 30
0.0
 10
329.294082
 20
127.921337
 30
0.0
 10
327.856888
 20
127.523466
 30
0.0
  0
LWPOLYLINE
  5
12c
100
AcDbEntity
  8
Layer_1
 62
7
100
AcDbPolyline
 90
3
 70
0
 10
316.892989
 20
129.534307
 30
0.0
 10
316.892989
 20
131.337425
 30
0.0
 10
323.293449
 20
131.165929
 30
0.0
  0
SPLINE
  5
12d
100
AcDbEntity
  8
Layer_1
 62
7
100
AcDbSpline
 70
8
 71
3
 72
8
 73
4
 74
0
 40
0
 40
0
 40
0
 40
0
 40
1
 40
1
 40
1
 40
1
 10
323.293477
 20
102.846373
 30
0.0
 10
321.963575
 20
102.743759
 30
0.0
 10
320.825210
 20
102.743759
 30
0.0
 10
320.763811
 20
102.846373
 30
0.0
  0
LWPOLYLINE
  5
12e
100
AcDbEntity
  8
Layer_1
 62
7
100
AcDbPolyline
 90
5
 70
0
 10
327.856888
 20
127.523466
 30
0.0
 10
326.019868
 20
127.015157
 30
0.0
 10
325.865380
 20
115.024039
 30
0.0
 10
325.711458
 20
103.032893
 30
0.0
 10
323.293477
 20
102.846373
 30
0.0
  0
LWPOLYLINE
  5
12f
100
AcDbEntity
  8
Layer_1
 62
7
100
AcDbPolyline
 90
2
 70
0
 10
320.763811
 20
102.846373
 30
0.0
 10
320.763981
 20
102.845211
 30
0.0
  0
SPLINE
  5
130
100
AcDbEntity
  8
Layer_1
 62
7
100
AcDbSpline
 70
8
 71
3
 72
8
 73
4
 74
0
 40
0
 40
0
 40
0
 40
0
 40
1
 40
1
 40
1
 40
1
 10
337.516879
 20
131.294991
 30
0.0
 10
344.597087
 20
131.292156
 30
0.0
 10
347.046447
 20
129.243189
 30
0.0
 10
347.046447
 20
123.325413
 30
0.0
  0
SPLINE
  5
131
100
AcDbEntity
  8
Layer_1
 62
7
100
AcDbSpline
 70
8
 71
3
 72
8
 73
4
 74
0
 40
0
 40
0
 40
0
 40
0
 40
1
 40
1
 40
1
 40
1
 10
347.046447
 20
123.325413
 30
0.0
 10
347.046447
 20
120.877016
 30
0.0
 10
345.725389
 20
117.316616
 30
0.0
 10
344.816942
 20
117.316616
 30
0.0
  0
SPLINE
  5
132
100
AcDbEntity
  8
Layer_1
 62
7
100
AcDbSpline
 70
8
 71
3
 72
8
 73
4
 74
0
 40
0
 40
0
 40
0
 40
0
 40
1
 40
1
 40
1
 40
1
 10
344.816942
 20
117.316616
 30
0.0
 10
343.684756
 20
117.316616
 30
0.0
 10
343.840038
 20
115.414058
 30
0.0
 10
345.390816
 20
110.285816
 30
0.0
  0
SPLINE
  5
133
100
AcDbEntity
  8
Layer_1
 62
7
100
AcDbSpline
 70
8
 71
3
 72
8
 73
4
 74
0
 40
0
 40
0
 40
0
 40
0
 40
1
 40
1
 40
1
 40
1
 10
345.390816
 20
110.285816
 30
0.0
 10
347.587525
 20
103.021101
 30
0.0
 10
347.566151
 20
102.728027
 30
0.0
 10
344.840469
 20
102.728027
 30
0.0
  0
SPLINE
  5
134
100
AcDbEntity
  8
Layer_1
 62
7
100
AcDbSpline
 70
8
 71
3
 72
8
 73
4
 74
0
 40
0
 40
0
 40
0
 40
0
 40
1
 40
1
 40
1
 40
1
 10
344.840469
 20
102.728027
 30
0.0
 10
342.403071
 20
102.728027
 30
0.0
 10
341.702743
 20
103.358395
 30
0.0
 10
341.127197
 20
106.071208
 30
0.0
  0
SPLINE
  5
135
100
AcDbEntity
  8
Layer_1
 62
7
100
AcDbSpline
 70
8
 71
3
 72
8
 73
4
 74
0
 40
0
 40
0
 40
0
 40
0
 40
1
 40
1
 40
1
 40
1
 10
341.127197
 20
106.071208
 30
0.0
 10
339.111452
 20
115.572090
 30
0.0
 10
337.967021
 20
116.174650
 30
0.0
 10
337.952394
 20
107.742855
 30
0.0
  0
LWPOLYLINE
  5
136
100
AcDbEntity
  8
Layer_1
 62
7
100
AcDbPolyline
 90
3
 70
0
 10
332.823216
 20
117.012770
 30
0.0
 10
332.823216
 20
131.297428
 30
0.0
 10
337.516879
 20
131.294991
 30
0.0
  0
SPLINE
  5
137
100
AcDbEntity
  8
Layer_1
 62
7
100
AcDbSpline
 70
8
 71
3
 72
8
 73
4
 74
0
 40
0
 40
0
 40
0
 40
0
 40
1
 40
1
 40
1
 40
1
 10
340.674447
 20
120.477557
 30
0.0
 10
341.797959
 20
121.678030
 30
0.0
 10
341.537569
 20
126.288638
 30
0.0
 10
340.306199
 20
126.992594
 30
0.0
  0
SPLINE
  5
138
100
AcDbEntity
  8
Layer_1
 62
7
100
AcDbSpline
 70
8
 71
3
 72
8
 73
4
 74
0
 40
0
 40
0
 40
0
 40
0
 40
1
 40
1
 40
1
 40
1
 10
340.306199
 20
126.992594
 30
0.0
 10
338.827279
 20
127.838254
 30
0.0
 10
337.943295
 20
126.693198
 30
0.0
 10
337.943295
 20
123.931290
 30
0.0
  0
SPLINE
  5
139
100
AcDbEntity
  8
Layer_1
 62
7
100
AcDbSpline
 70
8
 71
3
 72
8
 73
4
 74
0
 40
0
 40
0
 40
0
 40
0
 40
1
 40
1
 40
1
 40
1
 10
337.943295
 20
123.931290
 30
0.0
 10
337.943295
 20
120.060213
 30
0.0
 10
339.014961
 20
118.704883
 30
0.0
 10
340.674164
 20
120.477557
 30
0.0
  0
LWPOLYLINE
  5
13a
100
AcDbEntity
  8
Layer_1
 62
7
100
AcDbPolyline
 90
5
 70
0
 10
337.952394
 20
107.742855
 30
0.0
 10
337.946725
 20
102.728169
 30
0.0
 10
335.386558
 20
102.728169
 30
0.0
 10
332.826391
 20
102.728169
 30
0.0
 10
332.823216
 20
117.012770
 30
0.0
  0
SPLINE
  5
13b
100
AcDbEntity
  8
Layer_1
 62
7
100
AcDbSpline
 70
8
 71
3
 72
8
 73
4
 74
0
 40
0
 40
0
 40
0
 40
0
 40
1
 40
1
 40
1
 40
1
 10
350.158860
 20
103.467161
 30
0.0
 10
349.998986
 20
103.912285
 30
0.0
 10
349.937191
 20
110.287885
 30
0.0
 10
350.021663
 20
117.635003
 30
0.0
  0
LWPOLYLINE
  5
13c
100
AcDbEntity
  8
Layer_1
 62
7
100
AcDbPolyline
 90
2
 70
0
 10
340.674164
 20
120.477557
 30
0.0
 10
340.674447
 20
120.477557
 30
0.0
  0
SPLINE
  5
13d
100
AcDbEntity
  8
Layer_1
 62
7
100
AcDbSpline
 70
8
 71
3
 72
8
 73
4
 74
0
 40
0
 40
0
 40
0
 40
0
 40
1
 40
1
 40
1
 40
1
 10
352.872778
 20
102.844701
 30
0.0
 10
351.247647
 20
102.719126
 30
0.0
 10
350.353940
 20
102.923787
 30
0.0
 10
350.158945
 20
103.467161
 30
0.0
  0
LWPOLYLINE
  5
13e
100
AcDbEntity
  8
Layer_1
 62
7
100
AcDbPolyline
 90
7
 70
0
 10
350.021663
 20
117.635003
 30
0.0
 10
350.175584
 20
130.993526
 30
0.0
 10
352.735780
 20
130.993526
 30
0.0
 10
355.295947
 20
130.993526
 30
0.0
 10
355.295947
 20
117.012770
 30
0.0
 10
355.295947
 20
103.032071
 30
0.0
 10
352.872778
 20
102.844701
 30
0.0
  0
SPLINE
  5
13f
100
AcDbEntity
  8
Layer_1
 62
7
100
AcDbSpline
 70
8
 71
3
 72
8
 73
4
 74
0
 40
0
 40
0
 40
0
 40
0
 40
1
 40
1
 40
1
 40
1
 10
359.962000
 20
103.112490
 30
0.0
 10
359.742315
 20
103.347198
 30
0.0
 10
359.562854
 20
109.794600
 30
0.0
 10
359.562854
 20
117.440320
 30
0.0
  0
LWPOLYLINE
  5
140
100
AcDbEntity
  8
Layer_1
 62
7
100
AcDbPolyline
 90
1
 70
1
 10
350.158945
 20
103.467161
 30
0.0
  0
SPLINE
  5
141
100
AcDbEntity
  8
Layer_1
 62
7
100
AcDbSpline
 70
8
 71
3
 72
8
 73
4
 74
0
 40
0
 40
0
 40
0
 40
0
 40
1
 40
1
 40
1
 40
1
 10
365.109887
 20
131.167970
 30
0.0
 10
370.604054
 20
130.995624
 30
0.0
 10
370.656948
 20
130.979750
 30
0.0
 10
370.656948
 20
129.474354
 30
0.0
  0
SPLINE
  5
142
100
AcDbEntity
  8
Layer_1
 62
7
100
AcDbSpline
 70
8
 71
3
 72
8
 73
4
 74
0
 40
0
 40
0
 40
0
 40
0
 40
1
 40
1
 40
1
 40
1
 10
370.656948
 20
129.474354
 30
0.0
 10
370.656948
 20
128.123532
 30
0.0
 10
370.372718
 20
127.920940
 30
0.0
 10
368.096781
 20
127.650770
 30
0.0
  0
LWPOLYLINE
  5
143
100
AcDbEntity
  8
Layer_1
 62
7
100
AcDbPolyline
 90
3
 70
0
 10
359.562854
 20
117.440320
 30
0.0
 10
359.562854
 20
131.341734
 30
0.0
 10
365.109887
 20
131.167970
 30
0.0
  0
SPLINE
  5
144
100
AcDbEntity
  8
Layer_1
 62
7
100
AcDbSpline
 70
8
 71
3
 72
8
 73
4
 74
0
 40
0
 40
0
 40
0
 40
0
 40
1
 40
1
 40
1
 40
1
 10
365.536586
 20
123.705907
 30
0.0
 10
365.536586
 20
120.138874
 30
0.0
 10
365.570035
 20
120.058313
 30
0.0
 10
367.236466
 20
119.750102
 30
0.0
  0
SPLINE
  5
145
100
AcDbEntity
  8
Layer_1
 62
7
100
AcDbSpline
 70
8
 71
3
 72
8
 73
4
 74
0
 40
0
 40
0
 40
0
 40
0
 40
1
 40
1
 40
1
 40
1
 10
367.236466
 20
119.750102
 30
0.0
 10
370.158561
 20
119.209507
 30
0.0
 10
369.607137
 20
115.493882
 30
0.0
 10
366.604822
 20
115.493882
 30
0.0
  0
SPLINE
  5
146
100
AcDbEntity
  8
Layer_1
 62
7
100
AcDbSpline
 70
8
 71
3
 72
8
 73
4
 74
0
 40
0
 40
0
 40
0
 40
0
 40
1
 40
1
 40
1
 40
1
 10
366.604822
 20
115.493882
 30
0.0
 10
365.309389
 20
115.493882
 30
0.0
 10
365.252158
 20
115.313598
 30
0.0
 10
365.252158
 20
111.238852
 30
0.0
  0
LWPOLYLINE
  5
147
100
AcDbEntity
  8
Layer_1
 62
7
100
AcDbPolyline
 90
3
 70
0
 10
368.096781
 20
127.650770
 30
0.0
 10
365.536586
 20
127.347094
 30
0.0
 10
365.536586
 20
123.705907
 30
0.0
  0
SPLINE
  5
148
100
AcDbEntity
  8
Layer_1
 62
7
100
AcDbSpline
 70
8
 71
3
 72
8
 73
4
 74
0
 40
0
 40
0
 40
0
 40
0
 40
1
 40
1
 40
1
 40
1
 10
367.134646
 20
106.983822
 30
0.0
 10
369.481761
 20
106.983822
 30
0.0
 10
371.131298
 20
105.753047
 30
0.0
 10
370.854580
 20
104.208335
 30
0.0
  0
SPLINE
  5
149
100
AcDbEntity
  8
Layer_1
 62
7
100
AcDbSpline
 70
8
 71
3
 72
8
 73
4
 74
0
 40
0
 40
0
 40
0
 40
0
 40
1
 40
1
 40
1
 40
1
 10
370.854580
 20
104.208335
 30
0.0
 10
370.667777
 20
103.165441
 30
0.0
 10
370.063799
 20
103.013249
 30
0.0
 10
365.502514
 20
102.859611
 30
0.0
  0
SPLINE
  5
14a
100
AcDbEntity
  8
Layer_1
 62
7
100
AcDbSpline
 70
8
 71
3
 72
8
 73
4
 74
0
 40
0
 40
0
 40
0
 40
0
 40
1
 40
1
 40
1
 40
1
 10
365.502514
 20
102.859611
 30
0.0
 10
362.674756
 20
102.764083
 30
0.0
 10
360.181515
 20
102.882288
 30
0.0
 10
359.962000
 20
103.113028
 30
0.0
  0
LWPOLYLINE
  5
14b
100
AcDbEntity
  8
Layer_1
 62
7
100
AcDbPolyline
 90
3
 70
0
 10
365.252158
 20
111.238852
 30
0.0
 10
365.252158
 20
106.983822
 30
0.0
 10
367.134646
 20
106.983822
 30
0.0
  0
SPLINE
  5
14c
100
AcDbEntity
  8
Layer_1
 62
7
100
AcDbSpline
 70
8
 71
3
 72
8
 73
4
 74
0
 40
0
 40
0
 40
0
 40
0
 40
1
 40
1
 40
1
 40
1
 10
392.939984
 20
103.135167
 30
0.0
 10
392.731638
 20
103.357687
 30
0.0
 10
392.560992
 20
108.820899
 30
0.0
 10
392.560992
 20
115.274849
 30
0.0
  0
LWPOLYLINE
  5
14d
100
AcDbEntity
  8
Layer_1
 62
7
100
AcDbPolyline
 90
2
 70
0
 10
359.962000
 20
103.113028
 30
0.0
 10
359.962000
 20
103.112490
 30
0.0
  0
SPLINE
  5
14e
100
AcDbEntity
  8
Layer_1
 62
7
100
AcDbSpline
 70
8
 71
3
 72
8
 73
4
 74
0
 40
0
 40
0
 40
0
 40
0
 40
1
 40
1
 40
1
 40
1
 10
390.711953
 20
127.521283
 30
0.0
 10
389.262939
 20
127.922613
 30
0.0
 10
388.862970
 20
128.353507
 30
0.0
 10
388.862970
 20
129.514124
 30
0.0
  0
SPLINE
  5
14f
100
AcDbEntity
  8
Layer_1
 62
7
100
AcDbSpline
 70
8
 71
3
 72
8
 73
4
 74
0
 40
0
 40
0
 40
0
 40
0
 40
1
 40
1
 40
1
 40
1
 10
388.862970
 20
129.514124
 30
0.0
 10
388.862970
 20
130.985617
 30
0.0
 10
388.903222
 20
130.996247
 30
0.0
 10
395.263430
 20
131.167063
 30
0.0
  0
LWPOLYLINE
  5
150
100
AcDbEntity
  8
Layer_1
 62
7
100
AcDbPolyline
 90
3
 70
0
 10
392.560992
 20
115.274849
 30
0.0
 10
392.560992
 20
127.009375
 30
0.0
 10
390.711953
 20
127.521283
 30
0.0
  0
SPLINE
  5
151
100
AcDbEntity
  8
Layer_1
 62
7
100
AcDbSpline
 70
8
 71
3
 72
8
 73
4
 74
0
 40
0
 40
0
 40
0
 40
0
 40
1
 40
1
 40
1
 40
1
 10
401.663862
 20
129.535441
 30
0.0
 10
401.663862
 20
128.020294
 30
0.0
 10
401.413846
 20
127.701595
 30
0.0
 10
400.099279
 20
127.539992
 30
0.0
  0
LWPOLYLINE
  5
152
100
AcDbEntity
  8
Layer_1
 62
7
100
AcDbPolyline
 90
3
 70
0
 10
395.263430
 20
131.167063
 30
0.0
 10
401.663862
 20
131.338559
 30
0.0
 10
401.663862
 20
129.535441
 30
0.0
  0
SPLINE
  5
153
100
AcDbEntity
  8
Layer_1
 62
7
100
AcDbSpline
 70
8
 71
3
 72
8
 73
4
 74
0
 40
0
 40
0
 40
0
 40
0
 40
1
 40
1
 40
1
 40
1
 10
398.219597
 20
115.190348
 30
0.0
 10
398.046117
 20
108.503929
 30
0.0
 10
397.854721
 20
102.964861
 30
0.0
 10
397.792898
 20
102.881239
 30
0.0
  0
SPLINE
  5
154
100
AcDbEntity
  8
Layer_1
 62
7
100
AcDbSpline
 70
8
 71
3
 72
8
 73
4
 74
0
 40
0
 40
0
 40
0
 40
0
 40
1
 40
1
 40
1
 40
1
 10
397.792898
 20
102.881239
 30
0.0
 10
397.540898
 20
102.538049
 30
0.0
 10
393.290602
 20
102.759917
 30
0.0
 10
392.940041
 20
103.134657
 30
0.0
  0
LWPOLYLINE
  5
155
100
AcDbEntity
  8
Layer_1
 62
7
100
AcDbPolyline
 90
3
 70
0
 10
400.099279
 20
127.539992
 30
0.0
 10
398.534753
 20
127.347520
 30
0.0
 10
398.219597
 20
115.190348
 30
0.0
  0
SPLINE
  5
156
100
AcDbEntity
  8
Layer_1
 62
7
100
AcDbSpline
 70
8
 71
3
 72
8
 73
4
 74
0
 40
0
 40
0
 40
0
 40
0
 40
1
 40
1
 40
1
 40
1
 10
404.771625
 20
103.481220
 30
0.0
 10
404.614303
 20
103.919882
 30
0.0
 10
404.554492
 20
110.289671
 30
0.0
 10
404.639247
 20
117.636874
 30
0.0
  0
LWPOLYLINE
  5
157
100
AcDbEntity
  8
Layer_1
 62
7
100
AcDbPolyline
 90
2
 70
0
 10
392.940041
 20
103.134657
 30
0.0
 10
392.939984
 20
103.135167
 30
0.0
  0
SPLINE
  5
158
100
AcDbEntity
  8
Layer_1
 62
7
100
AcDbSpline
 70
8
 71
3
 72
8
 73
4
 74
0
 40
0
 40
0
 40
0
 40
0
 40
1
 40
1
 40
1
 40
1
 10
410.198016
 20
130.995312
 30
0.0
 10
415.583871
 20
130.995312
 30
0.0
 10
415.602835
 20
130.989643
 30
0.0
 10
415.602835
 20
129.475658
 30
0.0
  0
SPLINE
  5
159
100
AcDbEntity
  8
Layer_1
 62
7
100
AcDbSpline
 70
8
 71
3
 72
8
 73
4
 74
0
 40
0
 40
0
 40
0
 40
0
 40
1
 40
1
 40
1
 40
1
 10
415.602835
 20
129.475658
 30
0.0
 10
415.602835
 20
128.124836
 30
0.0
 10
415.318577
 20
127.922244
 30
0.0
 10
413.042640
 20
127.652074
 30
0.0
  0
LWPOLYLINE
  5
15a
100
AcDbEntity
  8
Layer_1
 62
7
100
AcDbPolyline
 90
3
 70
0
 10
404.639247
 20
117.636874
 30
0.0
 10
404.793169
 20
130.995312
 30
0.0
 10
410.198016
 20
130.995312
 30
0.0
  0
SPLINE
  5
15b
100
AcDbEntity
  8
Layer_1
 62
7
100
AcDbSpline
 70
8
 71
3
 72
8
 73
4
 74
0
 40
0
 40
0
 40
0
 40
0
 40
1
 40
1
 40
1
 40
1
 10
410.482473
 20
123.707211
 30
0.0
 10
410.482473
 20
120.136465
 30
0.0
 10
410.516205
 20
120.059986
 30
0.0
 10
412.189269
 20
119.752200
 30
0.0
  0
SPLINE
  5
15c
100
AcDbEntity
  8
Layer_1
 62
7
100
AcDbSpline
 70
8
 71
3
 72
8
 73
4
 74
0
 40
0
 40
0
 40
0
 40
0
 40
1
 40
1
 40
1
 40
1
 10
412.189269
 20
119.752200
 30
0.0
 10
413.446832
 20
119.520893
 30
0.0
 10
413.946580
 20
119.057230
 30
0.0
 10
414.088029
 20
117.991375
 30
0.0
  0
SPLINE
  5
15d
100
AcDbEntity
  8
Layer_1
 62
7
100
AcDbSpline
 70
8
 71
3
 72
8
 73
4
 74
0
 40
0
 40
0
 40
0
 40
0
 40
1
 40
1
 40
1
 40
1
 10
414.088029
 20
117.991375
 30
0.0
 10
414.302328
 20
116.377809
 30
0.0
 10
413.400258
 20
115.518430
 30
0.0
 10
411.478114
 20
115.504427
 30
0.0
  0
SPLINE
  5
15e
100
AcDbEntity
  8
Layer_1
 62
7
100
AcDbSpline
 70
8
 71
3
 72
8
 73
4
 74
0
 40
0
 40
0
 40
0
 40
0
 40
1
 40
1
 40
1
 40
1
 10
411.478114
 20
115.504427
 30
0.0
 10
410.273361
 20
115.495923
 30
0.0
 10
410.198016
 20
115.244490
 30
0.0
 10
410.198016
 20
111.240156
 30
0.0
  0
LWPOLYLINE
  5
15f
100
AcDbEntity
  8
Layer_1
 62
7
100
AcDbPolyline
 90
3
 70
0
 10
413.042640
 20
127.652074
 30
0.0
 10
410.482473
 20
127.348398
 30
0.0
 10
410.482473
 20
123.707211
 30
0.0
  0
SPLINE
  5
160
100
AcDbEntity
  8
Layer_1
 62
7
100
AcDbSpline
 70
8
 71
3
 72
8
 73
4
 74
0
 40
0
 40
0
 40
0
 40
0
 40
1
 40
1
 40
1
 40
1
 10
412.080532
 20
106.985126
 30
0.0
 10
414.427619
 20
106.985126
 30
0.0
 10
416.077156
 20
105.754351
 30
0.0
 10
415.800381
 20
104.209639
 30
0.0
  0
SPLINE
  5
161
100
AcDbEntity
  8
Layer_1
 62
7
100
AcDbSpline
 70
8
 71
3
 72
8
 73
4
 74
0
 40
0
 40
0
 40
0
 40
0
 40
1
 40
1
 40
1
 40
1
 10
415.800381
 20
104.209639
 30
0.0
 10
415.613011
 20
103.164024
 30
0.0
 10
415.007616
 20
103.014780
 30
0.0
 10
410.324101
 20
102.859186
 30
0.0
  0
SPLINE
  5
162
100
AcDbEntity
  8
Layer_1
 62
7
100
AcDbSpline
 70
8
 71
3
 72
8
 73
4
 74
0
 40
0
 40
0
 40
0
 40
0
 40
1
 40
1
 40
1
 40
1
 10
410.324101
 20
102.859186
 30
0.0
 10
406.384907
 20
102.728509
 30
0.0
 10
404.986293
 20
102.887816
 30
0.0
 10
404.772136
 20
103.481646
 30
0.0
  0
LWPOLYLINE
  5
163
100
AcDbEntity
  8
Layer_1
 62
7
100
AcDbPolyline
 90
3
 70
0
 10
410.198016
 20
111.240156
 30
0.0
 10
410.198016
 20
106.985126
 30
0.0
 10
412.080532
 20
106.985126
 30
0.0
  0
SPLINE
  5
164
100
AcDbEntity
  8
Layer_1
 62
7
100
AcDbSpline
 70
8
 71
3
 72
8
 73
4
 74
0
 40
0
 40
0
 40
0
 40
0
 40
1
 40
1
 40
1
 40
1
 10
219.306335
 20
146.624981
 30
0.0
 10
219.152470
 20
147.054317
 30
0.0
 10
219.093056
 20
163.134496
 30
0.0
 10
219.174297
 20
182.357957
 30
0.0
  0
LWPOLYLINE
  5
165
100
AcDbEntity
  8
Layer_1
 62
7
100
AcDbPolyline
 90
2
 70
0
 10
404.772136
 20
103.481646
 30
0.0
 10
404.771625
 20
103.481220
 30
0.0
  0
SPLINE
  5
166
100
AcDbEntity
  8
Layer_1
 62
7
100
AcDbSpline
 70
8
 71
3
 72
8
 73
4
 74
0
 40
0
 40
0
 40
0
 40
0
 40
1
 40
1
 40
1
 40
1
 10
225.427744
 20
146.017517
 30
0.0
 10
221.072895
 20
145.888257
 30
0.0
 10
219.514903
 20
146.046146
 30
0.0
 10
219.306352
 20
146.625605
 30
0.0
  0
LWPOLYLINE
  5
167
100
AcDbEntity
  8
Layer_1
 62
7
100
AcDbPolyline
 90
7
 70
0
 10
219.174297
 20
182.357957
 30
0.0
 10
219.321982
 20
217.309708
 30
0.0
 10
225.295703
 20
217.309708
 30
0.0
 10
231.269455
 20
217.309708
 30
0.0
 10
231.269455
 20
181.750068
 30
0.0
 10
231.269455
 20
146.190430
 30
0.0
 10
225.427744
 20
146.017517
 30
0.0
  0
SPLINE
  5
168
100
AcDbEntity
  8
Layer_1
 62
7
100
AcDbSpline
 70
8
 71
3
 72
8
 73
4
 74
0
 40
0
 40
0
 40
0
 40
0
 40
1
 40
1
 40
1
 40
1
 10
247.745057
 20
146.647658
 30
0.0
 10
247.595217
 20
147.065513
 30
0.0
 10
247.539431
 20
163.135772
 30
0.0
 10
247.620757
 20
182.359233
 30
0.0
  0
LWPOLYLINE
  5
169
100
AcDbEntity
  8
Layer_1
 62
7
100
AcDbPolyline
 90
2
 70
0
 10
219.306352
 20
146.625605
 30
0.0
 10
219.306335
 20
146.624981
 30
0.0
  0
SPLINE
  5
16a
100
AcDbEntity
  8
Layer_1
 62
7
100
AcDbSpline
 70
8
 71
3
 72
8
 73
4
 74
0
 40
0
 40
0
 40
0
 40
0
 40
1
 40
1
 40
1
 40
1
 10
253.779963
 20
217.482639
 30
0.0
 10
258.963955
 20
217.630551
 30
0.0
 10
259.912028
 20
217.504182
 30
0.0
 10
260.668725
 20
216.570855
 30
0.0
  0
SPLINE
  5
16b
100
AcDbEntity
  8
Layer_1
 62
7
100
AcDbSpline
 70
8
 71
3
 72
8
 73
4
 74
0
 40
0
 40
0
 40
0
 40
0
 40
1
 40
1
 40
1
 40
1
 10
260.668725
 20
216.570855
 30
0.0
 10
261.151196
 20
215.974962
 30
0.0
 10
267.766536
 20
204.751383
 30
0.0
 10
275.369257
 20
191.629278
 30
0.0
  0
SPLINE
  5
16c
100
AcDbEntity
  8
Layer_1
 62
7
100
AcDbSpline
 70
8
 71
3
 72
8
 73
4
 74
0
 40
0
 40
0
 40
0
 40
0
 40
1
 40
1
 40
1
 40
1
 10
275.369257
 20
191.629278
 30
0.0
 10
282.971918
 20
178.507176
 30
0.0
 10
289.405742
 20
167.770871
 30
0.0
 10
289.666671
 20
167.770871
 30
0.0
  0
SPLINE
  5
16d
100
AcDbEntity
  8
Layer_1
 62
7
100
AcDbSpline
 70
8
 71
3
 72
8
 73
4
 74
0
 40
0
 40
0
 40
0
 40
0
 40
1
 40
1
 40
1
 40
1
 10
289.666671
 20
167.770871
 30
0.0
 10
289.927458
 20
167.770871
 30
0.0
 10
290.207606
 20
178.917491
 30
0.0
 10
290.289584
 20
192.541065
 30
0.0
  0
LWPOLYLINE
  5
16e
100
AcDbEntity
  8
Layer_1
 62
7
100
AcDbPolyline
 90
3
 70
0
 10
247.620757
 20
182.359233
 30
0.0
 10
247.768584
 20
217.311058
 30
0.0
 10
253.779963
 20
217.482639
 30
0.0
  0
SPLINE
  5
16f
100
AcDbEntity
  8
Layer_1
 62
7
100
AcDbSpline
 70
8
 71
3
 72
8
 73
4
 74
0
 40
0
 40
0
 40
0
 40
0
 40
1
 40
1
 40
1
 40
1
 10
295.795402
 20
217.487086
 30
0.0
 10
299.697773
 20
217.615609
 30
0.0
 10
301.279080
 20
217.451200
 30
0.0
 10
301.618217
 20
216.878990
 30
0.0
  0
SPLINE
  5
170
100
AcDbEntity
  8
Layer_1
 62
7
100
AcDbSpline
 70
8
 71
3
 72
8
 73
4
 74
0
 40
0
 40
0
 40
0
 40
0
 40
1
 40
1
 40
1
 40
1
 10
301.618217
 20
216.878990
 30
0.0
 10
302.225682
 20
215.856210
 30
0.0
 10
302.227043
 20
147.648345
 30
0.0
 10
301.619918
 20
146.625690
 30
0.0
  0
SPLINE
  5
171
100
AcDbEntity
  8
Layer_1
 62
7
100
AcDbSpline
 70
8
 71
3
 72
8
 73
4
 74
0
 40
0
 40
0
 40
0
 40
0
 40
1
 40
1
 40
1
 40
1
 10
301.619918
 20
146.625690
 30
0.0
 10
301.277210
 20
146.049180
 30
0.0
 10
299.537417
 20
145.889816
 30
0.0
 10
294.979846
 20
146.017602
 30
0.0
  0
LWPOLYLINE
  5
172
100
AcDbEntity
  8
Layer_1
 62
7
100
AcDbPolyline
 90
3
 70
0
 10
290.289584
 20
192.541065
 30
0.0
 10
290.438120
 20
217.311197
 30
0.0
 10
295.795402
 20
217.487086
 30
0.0
  0
SPLINE
  5
173
100
AcDbEntity
  8
Layer_1
 62
7
100
AcDbSpline
 70
8
 71
3
 72
8
 73
4
 74
0
 40
0
 40
0
 40
0
 40
0
 40
1
 40
1
 40
1
 40
1
 10
274.803022
 20
170.350824
 30
0.0
 10
267.102665
 20
183.638480
 30
0.0
 10
260.493909
 20
194.839792
 30
0.0
 10
260.116938
 20
195.242559
 30
0.0
  0
SPLINE
  5
174
100
AcDbEntity
  8
Layer_1
 62
7
100
AcDbSpline
 70
8
 71
3
 72
8
 73
4
 74
0
 40
0
 40
0
 40
0
 40
0
 40
1
 40
1
 40
1
 40
1
 10
260.116938
 20
195.242559
 30
0.0
 10
259.582055
 20
195.814040
 30
0.0
 10
259.431535
 20
190.676092
 30
0.0
 10
259.431535
 20
171.892672
 30
0.0
  0
SPLINE
  5
175
100
AcDbEntity
  8
Layer_1
 62
7
100
AcDbSpline
 70
8
 71
3
 72
8
 73
4
 74
0
 40
0
 40
0
 40
0
 40
0
 40
1
 40
1
 40
1
 40
1
 10
259.431535
 20
171.892672
 30
0.0
 10
259.431535
 20
158.647450
 30
0.0
 10
259.276310
 20
147.377778
 30
0.0
 10
259.086145
 20
146.849003
 30
0.0
  0
SPLINE
  5
176
100
AcDbEntity
  8
Layer_1
 62
7
100
AcDbSpline
 70
8
 71
3
 72
8
 73
4
 74
0
 40
0
 40
0
 40
0
 40
0
 40
1
 40
1
 40
1
 40
1
 10
259.086145
 20
146.849003
 30
0.0
 10
258.805260
 20
146.066301
 30
0.0
 10
257.743430
 20
145.887463
 30
0.0
 10
253.378963
 20
145.887463
 30
0.0
  0
SPLINE
  5
177
100
AcDbEntity
  8
Layer_1
 62
7
100
AcDbSpline
 70
8
 71
3
 72
8
 73
4
 74
0
 40
0
 40
0
 40
0
 40
0
 40
1
 40
1
 40
1
 40
1
 10
253.378963
 20
145.887463
 30
0.0
 10
249.613955
 20
145.887463
 30
0.0
 10
247.936132
 20
146.113668
 30
0.0
 10
247.745093
 20
146.647261
 30
0.0
  0
LWPOLYLINE
  5
178
100
AcDbEntity
  8
Layer_1
 62
7
100
AcDbPolyline
 90
3
 70
0
 10
294.979846
 20
146.017602
 30
0.0
 10
288.803635
 20
146.191365
 30
0.0
 10
274.803022
 20
170.350824
 30
0.0
  0
SPLINE
  5
179
100
AcDbEntity
  8
Layer_1
 62
7
100
AcDbSpline
 70
8
 71
3
 72
8
 73
4
 74
0
 40
0
 40
0
 40
0
 40
0
 40
1
 40
1
 40
1
 40
1
 10
318.713824
 20
146.619028
 30
0.0
 10
318.199080
 20
147.168978
 30
0.0
 10
318.031099
 20
155.826694
 30
0.0
 10
318.031099
 20
181.853362
 30
0.0
  0
SPLINE
  5
17a
100
AcDbEntity
  8
Layer_1
 62
7
100
AcDbSpline
 70
8
 71
3
 72
8
 73
4
 74
0
 40
0
 40
0
 40
0
 40
0
 40
1
 40
1
 40
1
 40
1
 10
318.031099
 20
181.853362
 30
0.0
 10
318.031099
 20
215.345203
 30
0.0
 10
318.064548
 20
216.376741
 30
0.0
 10
319.131509
 20
216.987494
 30
0.0
  0
SPLINE
  5
17b
100
AcDbEntity
  8
Layer_1
 62
7
100
AcDbSpline
 70
8
 71
3
 72
8
 73
4
 74
0
 40
0
 40
0
 40
0
 40
0
 40
1
 40
1
 40
1
 40
1
 10
319.131509
 20
216.987494
 30
0.0
 10
320.316504
 20
217.665232
 30
0.0
 10
361.601984
 20
217.908828
 30
0.0
 10
363.214359
 20
217.248112
 30
0.0
  0
SPLINE
  5
17c
100
AcDbEntity
  8
Layer_1
 62
7
100
AcDbSpline
 70
8
 71
3
 72
8
 73
4
 74
0
 40
0
 40
0
 40
0
 40
0
 40
1
 40
1
 40
1
 40
1
 10
363.214359
 20
217.248112
 30
0.0
 10
363.936032
 20
216.952319
 30
0.0
 10
364.114303
 20
215.868730
 30
0.0
 10
364.114303
 20
211.777396
 30
0.0
  0
SPLINE
  5
17d
100
AcDbEntity
  8
Layer_1
 62
7
100
AcDbSpline
 70
8
 71
3
 72
8
 73
4
 74
0
 40
0
 40
0
 40
0
 40
0
 40
1
 40
1
 40
1
 40
1
 10
364.114303
 20
211.777396
 30
0.0
 10
364.114303
 20
208.971394
 30
0.0
 10
364.047121
 20
206.617623
 30
0.0
 10
363.972003
 20
206.546760
 30
0.0
  0
SPLINE
  5
17e
100
AcDbEntity
  8
Layer_1
 62
7
100
AcDbSpline
 70
8
 71
3
 72
8
 73
4
 74
0
 40
0
 40
0
 40
0
 40
0
 40
1
 40
1
 40
1
 40
1
 10
363.972003
 20
206.546760
 30
0.0
 10
363.894051
 20
206.474958
 30
0.0
 10
356.277216
 20
206.271062
 30
0.0
 10
347.046391
 20
206.090870
 30
0.0
  0
LWPOLYLINE
  5
17f
100
AcDbEntity
  8
Layer_1
 62
7
100
AcDbPolyline
 90
2
 70
0
 10
247.745093
 20
146.647261
 30
0.0
 10
247.745057
 20
146.647658
 30
0.0
  0
SPLINE
  5
180
100
AcDbEntity
  8
Layer_1
 62
7
100
AcDbSpline
 70
8
 71
3
 72
8
 73
4
 74
0
 40
0
 40
0
 40
0
 40
0
 40
1
 40
1
 40
1
 40
1
 10
330.105103
 20
197.493591
 30
0.0
 10
329.983496
 20
191.106567
 30
0.0
 10
330.124945
 20
189.067757
 30
0.0
 10
330.719937
 20
188.538562
 30
0.0
  0
SPLINE
  5
181
100
AcDbEntity
  8
Layer_1
 62
7
100
AcDbSpline
 70
8
 71
3
 72
8
 73
4
 74
0
 40
0
 40
0
 40
0
 40
0
 40
1
 40
1
 40
1
 40
1
 10
330.719937
 20
188.538562
 30
0.0
 10
331.236013
 20
188.081235
 30
0.0
 10
336.200073
 20
187.799298
 30
0.0
 10
345.669773
 20
187.690530
 30
0.0
  0
LWPOLYLINE
  5
182
100
AcDbEntity
  8
Layer_1
 62
7
100
AcDbPolyline
 90
3
 70
0
 10
347.046391
 20
206.090870
 30
0.0
 10
330.262992
 20
205.763488
 30
0.0
 10
330.105103
 20
197.493591
 30
0.0
  0
SPLINE
  5
183
100
AcDbEntity
  8
Layer_1
 62
7
100
AcDbSpline
 70
8
 71
3
 72
8
 73
4
 74
0
 40
0
 40
0
 40
0
 40
0
 40
1
 40
1
 40
1
 40
1
 10
360.012230
 20
183.215523
 30
0.0
 10
360.130435
 20
180.127148
 30
0.0
 10
359.958372
 20
178.707132
 30
0.0
 10
359.397395
 20
178.211551
 30
0.0
  0
SPLINE
  5
184
100
AcDbEntity
  8
Layer_1
 62
7
100
AcDbSpline
 70
8
 71
3
 72
8
 73
4
 74
0
 40
0
 40
0
 40
0
 40
0
 40
1
 40
1
 40
1
 40
1
 10
359.397395
 20
178.211551
 30
0.0
 10
358.871909
 20
177.744883
 30
0.0
 10
353.993399
 20
177.466465
 30
0.0
 10
344.439906
 20
177.356764
 30
0.0
  0
LWPOLYLINE
  5
185
100
AcDbEntity
  8
Layer_1
 62
7
100
AcDbPolyline
 90
3
 70
0
 10
345.669773
 20
187.690530
 30
0.0
 10
359.846970
 20
187.527566
 30
0.0
 10
360.012230
 20
183.215523
 30
0.0
  0
SPLINE
  5
186
100
AcDbEntity
  8
Layer_1
 62
7
100
AcDbSpline
 70
8
 71
3
 72
8
 73
4
 74
0
 40
0
 40
0
 40
0
 40
0
 40
1
 40
1
 40
1
 40
1
 10
330.110233
 20
162.026518
 30
0.0
 10
329.997414
 20
150.822553
 30
0.0
 10
329.774271
 20
146.734880
 30
0.0
 10
329.256863
 20
146.383526
 30
0.0
  0
SPLINE
  5
187
100
AcDbEntity
  8
Layer_1
 62
7
100
AcDbSpline
 70
8
 71
3
 72
8
 73
4
 74
0
 40
0
 40
0
 40
0
 40
0
 40
1
 40
1
 40
1
 40
1
 10
329.256863
 20
146.383526
 30
0.0
 10
328.113452
 20
145.607485
 30
0.0
 10
319.479518
 20
145.799844
 30
0.0
 10
318.713427
 20
146.618235
 30
0.0
  0
LWPOLYLINE
  5
188
100
AcDbEntity
  8
Layer_1
 62
7
100
AcDbPolyline
 90
3
 70
0
 10
344.439906
 20
177.356764
 30
0.0
 10
330.262737
 20
177.193772
 30
0.0
 10
330.110233
 20
162.026518
 30
0.0
  0
SPLINE
  5
189
100
AcDbEntity
  8
Layer_1
 62
7
100
AcDbSpline
 70
8
 71
3
 72
8
 73
4
 74
0
 40
0
 40
0
 40
0
 40
0
 40
1
 40
1
 40
1
 40
1
 10
375.753981
 20
146.647658
 30
0.0
 10
375.604029
 20
147.065513
 30
0.0
 10
375.548469
 20
163.135828
 30
0.0
 10
375.629824
 20
182.359290
 30
0.0
  0
LWPOLYLINE
  5
18a
100
AcDbEntity
  8
Layer_1
 62
7
100
AcDbPolyline
 90
2
 70
0
 10
318.713427
 20
146.618235
 30
0.0
 10
318.713824
 20
146.619028
 30
0.0
  0
SPLINE
  5
18b
100
AcDbEntity
  8
Layer_1
 62
7
100
AcDbSpline
 70
8
 71
3
 72
8
 73
4
 74
0
 40
0
 40
0
 40
0
 40
0
 40
1
 40
1
 40
1
 40
1
 10
381.788885
 20
217.482639
 30
0.0
 10
386.974614
 20
217.630551
 30
0.0
 10
387.919940
 20
217.504182
 30
0.0
 10
388.671745
 20
216.570855
 30
0.0
  0
SPLINE
  5
18c
100
AcDbEntity
  8
Layer_1
 62
7
100
AcDbSpline
 70
8
 71
3
 72
8
 73
4
 74
0
 40
0
 40
0
 40
0
 40
0
 40
1
 40
1
 40
1
 40
1
 10
388.671745
 20
216.570855
 30
0.0
 10
389.150857
 20
215.974962
 30
0.0
 10
395.754703
 20
204.751383
 30
0.0
 10
403.346394
 20
191.629278
 30
0.0
  0
SPLINE
  5
18d
100
AcDbEntity
  8
Layer_1
 62
7
100
AcDbSpline
 70
8
 71
3
 72
8
 73
4
 74
0
 40
0
 40
0
 40
0
 40
0
 40
1
 40
1
 40
1
 40
1
 10
403.346394
 20
191.629278
 30
0.0
 10
410.938170
 20
178.507176
 30
0.0
 10
417.374630
 20
167.770871
 30
0.0
 10
417.649732
 20
167.770871
 30
0.0
  0
SPLINE
  5
18e
100
AcDbEntity
  8
Layer_1
 62
7
100
AcDbSpline
 70
8
 71
3
 72
8
 73
4
 74
0
 40
0
 40
0
 40
0
 40
0
 40
1
 40
1
 40
1
 40
1
 10
417.649732
 20
167.770871
 30
0.0
 10
417.926677
 20
167.770871
 30
0.0
 10
418.216208
 20
178.822644
 30
0.0
 10
418.298838
 20
192.541065
 30
0.0
  0
LWPOLYLINE
  5
18f
100
AcDbEntity
  8
Layer_1
 62
7
100
AcDbPolyline
 90
3
 70
0
 10
375.629824
 20
182.359290
 30
0.0
 10
375.777509
 20
217.311058
 30
0.0
 10
381.788885
 20
217.482639
 30
0.0
  0
SPLINE
  5
190
100
AcDbEntity
  8
Layer_1
 62
7
100
AcDbSpline
 70
8
 71
3
 72
8
 73
4
 74
0
 40
0
 40
0
 40
0
 40
0
 40
1
 40
1
 40
1
 40
1
 10
423.804684
 20
217.487086
 30
0.0
 10
427.707027
 20
217.615609
 30
0.0
 10
429.288362
 20
217.451200
 30
0.0
 10
429.627499
 20
216.878990
 30
0.0
  0
SPLINE
  5
191
100
AcDbEntity
  8
Layer_1
 62
7
100
AcDbSpline
 70
8
 71
3
 72
8
 73
4
 74
0
 40
0
 40
0
 40
0
 40
0
 40
1
 40
1
 40
1
 40
1
 10
429.627499
 20
216.878990
 30
0.0
 10
430.234964
 20
215.856210
 30
0.0
 10
430.236296
 20
147.648345
 30
0.0
 10
429.629172
 20
146.625690
 30
0.0
  0
SPLINE
  5
192
100
AcDbEntity
  8
Layer_1
 62
7
100
AcDbSpline
 70
8
 71
3
 72
8
 73
4
 74
0
 40
0
 40
0
 40
0
 40
0
 40
1
 40
1
 40
1
 40
1
 10
429.629172
 20
146.625690
 30
0.0
 10
429.286492
 20
146.049180
 30
0.0
 10
427.543411
 20
145.889731
 30
0.0
 10
422.971383
 20
146.017602
 30
0.0
  0
LWPOLYLINE
  5
193
100
AcDbEntity
  8
Layer_1
 62
7
100
AcDbPolyline
 90
3
 70
0
 10
418.298838
 20
192.541065
 30
0.0
 10
418.447373
 20
217.311197
 30
0.0
 10
423.804684
 20
217.487086
 30
0.0
  0
SPLINE
  5
194
100
AcDbEntity
  8
Layer_1
 62
7
100
AcDbSpline
 70
8
 71
3
 72
8
 73
4
 74
0
 40
0
 40
0
 40
0
 40
0
 40
1
 40
1
 40
1
 40
1
 10
402.766652
 20
170.380616
 30
0.0
 10
395.060725
 20
183.684657
 30
0.0
 10
388.459969
 20
194.885957
 30
0.0
 10
388.098325
 20
195.272354
 30
0.0
  0
SPLINE
  5
195
100
AcDbEntity
  8
Layer_1
 62
7
100
AcDbSpline
 70
8
 71
3
 72
8
 73
4
 74
0
 40
0
 40
0
 40
0
 40
0
 40
1
 40
1
 40
1
 40
1
 10
388.098325
 20
195.272354
 30
0.0
 10
387.601071
 20
195.803629
 30
0.0
 10
387.440460
 20
190.163409
 30
0.0
 10
387.440460
 20
172.106915
 30
0.0
  0
SPLINE
  5
196
100
AcDbEntity
  8
Layer_1
 62
7
100
AcDbSpline
 70
8
 71
3
 72
8
 73
4
 74
0
 40
0
 40
0
 40
0
 40
0
 40
1
 40
1
 40
1
 40
1
 10
387.440460
 20
172.106915
 30
0.0
 10
387.440460
 20
156.816553
 30
0.0
 10
387.228712
 20
147.816439
 30
0.0
 10
386.851817
 20
147.063246
 30
0.0
  0
SPLINE
  5
197
100
AcDbEntity
  8
Layer_1
 62
7
100
AcDbSpline
 70
8
 71
3
 72
8
 73
4
 74
0
 40
0
 40
0
 40
0
 40
0
 40
1
 40
1
 40
1
 40
1
 10
386.851817
 20
147.063246
 30
0.0
 10
386.336422
 20
146.034581
 30
0.0
 10
385.622658
 20
145.887463
 30
0.0
 10
381.144712
 20
145.887463
 30
0.0
  0
SPLINE
  5
198
100
AcDbEntity
  8
Layer_1
 62
7
100
AcDbSpline
 70
8
 71
3
 72
8
 73
4
 74
0
 40
0
 40
0
 40
0
 40
0
 40
1
 40
1
 40
1
 40
1
 10
381.144712
 20
145.887463
 30
0.0
 10
377.574561
 20
145.887463
 30
0.0
 10
375.944243
 20
146.117353
 30
0.0
 10
375.754406
 20
146.647261
 30
0.0
  0
LWPOLYLINE
  5
199
100
AcDbEntity
  8
Layer_1
 62
7
100
AcDbPolyline
 90
3
 70
0
 10
422.971383
 20
146.017602
 30
0.0
 10
416.777427
 20
146.191365
 30
0.0
 10
402.766652
 20
170.380616
 30
0.0
  0
SPLINE
  5
19a
100
AcDbEntity
  8
Layer_1
 62
7
100
AcDbSpline
 70
8
 71
3
 72
8
 73
4
 74
0
 40
0
 40
0
 40
0
 40
0
 40
1
 40
1
 40
1
 40
1
 10
158.584355
 20
102.765019
 30
0.0
 10
130.413995
 20
104.923998
 30
0.0
 10
109.367412
 20
114.277139
 30
0.0
 10
100.783215
 20
128.451813
 30
0.0
  0
SPLINE
  5
19b
100
AcDbEntity
  8
Layer_1
 62
7
100
AcDbSpline
 70
8
 71
3
 72
8
 73
4
 74
0
 40
0
 40
0
 40
0
 40
0
 40
1
 40
1
 40
1
 40
1
 10
100.783215
 20
128.451813
 30
0.0
 10
89.951314
 20
146.338030
 30
0.0
 10
96.683070
 20
169.860742
 30
0.0
 10
119.759467
 20
194.760170
 30
0.0
  0
SPLINE
  5
19c
100
AcDbEntity
  8
Layer_1
 62
7
100
AcDbSpline
 70
8
 71
3
 72
8
 73
4
 74
0
 40
0
 40
0
 40
0
 40
0
 40
1
 40
1
 40
1
 40
1
 10
119.759467
 20
194.760170
 30
0.0
 10
148.695445
 20
225.982154
 30
0.0
 10
199.589084
 20
254.660114
 30
0.0
 10
254.026631
 20
270.418139
 30
0.0
  0
SPLINE
  5
19d
100
AcDbEntity
  8
Layer_1
 62
7
100
AcDbSpline
 70
8
 71
3
 72
8
 73
4
 74
0
 40
0
 40
0
 40
0
 40
0
 40
1
 40
1
 40
1
 40
1
 10
254.026631
 20
270.418139
 30
0.0
 10
318.634114
 20
289.120085
 30
0.0
 10
379.503282
 20
285.855103
 30
0.0
 10
401.605014
 20
262.502116
 30
0.0
  0
SPLINE
  5
19e
100
AcDbEntity
  8
Layer_1
 62
7
100
AcDbSpline
 70
8
 71
3
 72
8
 73
4
 74
0
 40
0
 40
0
 40
0
 40
0
 40
1
 40
1
 40
1
 40
1
 10
401.605014
 20
262.502116
 30
0.0
 10
404.810942
 20
259.114652
 30
0.0
 10
408.140800
 20
253.656717
 30
0.0
 10
409.452532
 20
249.638973
 30
0.0
  0
SPLINE
  5
19f
100
AcDbEntity
  8
Layer_1
 62
7
100
AcDbSpline
 70
8
 71
3
 72
8
 73
4
 74
0
 40
0
 40
0
 40
0
 40
0
 40
1
 40
1
 40
1
 40
1
 10
409.452532
 20
249.638973
 30
0.0
 10
411.023238
 20
244.828335
 30
0.0
 10
410.891994
 20
233.898823
 30
0.0
 10
409.194580
 20
228.129231
 30
0.0
  0
SPLINE
  5
1a0
100
AcDbEntity
  8
Layer_1
 62
7
100
AcDbSpline
 70
8
 71
3
 72
8
 73
4
 74
0
 40
0
 40
0
 40
0
 40
0
 40
1
 40
1
 40
1
 40
1
 10
409.194580
 20
228.129231
 30
0.0
 10
408.486315
 20
225.722404
 30
0.0
 10
407.692189
 20
223.611369
 30
0.0
 10
407.429814
 20
223.438130
 30
0.0
  0
SPLINE
  5
1a1
100
AcDbEntity
  8
Layer_1
 62
7
100
AcDbSpline
 70
8
 71
3
 72
8
 73
4
 74
0
 40
0
 40
0
 40
0
 40
0
 40
1
 40
1
 40
1
 40
1
 10
407.429814
 20
223.438130
 30
0.0
 10
407.167610
 20
223.265103
 30
0.0
 10
406.978907
 20
226.191506
 30
0.0
 10
407.010485
 20
229.941746
 30
0.0
  0
SPLINE
  5
1a2
100
AcDbEntity
  8
Layer_1
 62
7
100
AcDbSpline
 70
8
 71
3
 72
8
 73
4
 74
0
 40
0
 40
0
 40
0
 40
0
 40
1
 40
1
 40
1
 40
1
 10
407.010485
 20
229.941746
 30
0.0
 10
407.064343
 20
236.375076
 30
0.0
 10
406.970233
 20
236.983603
 30
0.0
 10
405.305446
 20
240.711443
 30
0.0
  0
SPLINE
  5
1a3
100
AcDbEntity
  8
Layer_1
 62
7
100
AcDbSpline
 70
8
 71
3
 72
8
 73
4
 74
0
 40
0
 40
0
 40
0
 40
0
 40
1
 40
1
 40
1
 40
1
 10
405.305446
 20
240.711443
 30
0.0
 10
398.533222
 20
255.888510
 30
0.0
 10
381.104375
 20
265.653306
 30
0.0
 10
355.460668
 20
268.637788
 30
0.0
  0
SPLINE
  5
1a4
100
AcDbEntity
  8
Layer_1
 62
7
100
AcDbSpline
 70
8
 71
3
 72
8
 73
4
 74
0
 40
0
 40
0
 40
0
 40
0
 40
1
 40
1
 40
1
 40
1
 10
355.460668
 20
268.637788
 30
0.0
 10
348.384230
 20
269.461338
 30
0.0
 10
328.450236
 20
269.465576
 30
0.0
 10
318.571581
 20
268.644875
 30
0.0
  0
SPLINE
  5
1a5
100
AcDbEntity
  8
Layer_1
 62
7
100
AcDbSpline
 70
8
 71
3
 72
8
 73
4
 74
0
 40
0
 40
0
 40
0
 40
0
 40
1
 40
1
 40
1
 40
1
 10
318.571581
 20
268.644875
 30
0.0
 10
239.686627
 20
262.096960
 30
0.0
 10
150.856731
 20
215.233758
 30
0.0
 10
130.557457
 20
169.455869
 30
0.0
  0
SPLINE
  5
1a6
100
AcDbEntity
  8
Layer_1
 62
7
100
AcDbSpline
 70
8
 71
3
 72
8
 73
4
 74
0
 40
0
 40
0
 40
0
 40
0
 40
1
 40
1
 40
1
 40
1
 10
130.557457
 20
169.455869
 30
0.0
 10
111.777856
 20
127.105016
 30
0.0
 10
158.336551
 20
102.381265
 30
0.0
 10
234.398680
 20
114.313734
 30
0.0
  0
SPLINE
  5
1a7
100
AcDbEntity
  8
Layer_1
 62
7
100
AcDbSpline
 70
8
 71
3
 72
8
 73
4
 74
0
 40
0
 40
0
 40
0
 40
0
 40
1
 40
1
 40
1
 40
1
 10
234.398680
 20
114.313734
 30
0.0
 10
245.960072
 20
116.127397
 30
0.0
 10
257.824651
 20
118.789441
 30
0.0
 10
271.015216
 20
122.529217
 30
0.0
  0
SPLINE
  5
1a8
100
AcDbEntity
  8
Layer_1
 62
7
100
AcDbSpline
 70
8
 71
3
 72
8
 73
4
 74
0
 40
0
 40
0
 40
0
 40
0
 40
1
 40
1
 40
1
 40
1
 10
271.015216
 20
122.529217
 30
0.0
 10
277.542665
 20
124.379844
 30
0.0
 10
283.000406
 20
125.768934
 30
0.0
 10
283.143471
 20
125.616061
 30
0.0
  0
SPLINE
  5
1a9
100
AcDbEntity
  8
Layer_1
 62
7
100
AcDbSpline
 70
8
 71
3
 72
8
 73
4
 74
0
 40
0
 40
0
 40
0
 40
0
 40
1
 40
1
 40
1
 40
1
 10
283.143471
 20
125.616061
 30
0.0
 10
283.999080
 20
124.702002
 30
0.0
 10
263.591908
 20
117.681038
 30
0.0
 10
246.630624
 20
113.054046
 30
0.0
  0
SPLINE
  5
1aa
100
AcDbEntity
  8
Layer_1
 62
7
100
AcDbSpline
 70
8
 71
3
 72
8
 73
4
 74
0
 40
0
 40
0
 40
0
 40
0
 40
1
 40
1
 40
1
 40
1
 10
246.630624
 20
113.054046
 30
0.0
 10
214.349390
 20
104.247822
 30
0.0
 10
184.596895
 20
100.770761
 30
0.0
 10
158.584440
 20
102.764367
 30
0.0
  0
LWPOLYLINE
  5
1ab
100
AcDbEntity
  8
Layer_1
 62
7
100
AcDbPolyline
 90
2
 70
0
 10
375.754406
 20
146.647261
 30
0.0
 10
375.753981
 20
146.647658
 30
0.0
  0
SPLINE
  5
1ac
100
AcDbEntity
  8
Layer_1
 62
7
100
AcDbSpline
 70
8
 71
3
 72
8
 73
4
 74
0
 40
0
 40
0
 40
0
 40
0
 40
1
 40
1
 40
1
 40
1
 10
219.943518
 20
146.828112
 30
0.0
 10
219.166930
 20
147.657813
 30
0.0
 10
219.065537
 20
151.837328
 30
0.0
 10
219.095454
 20
181.785614
 30
0.0
  0
SPLINE
  5
1ad
100
AcDbEntity
  8
Layer_1
 62
7
100
AcDbSpline
 70
8
 71
3
 72
8
 73
4
 74
0
 40
0
 40
0
 40
0
 40
0
 40
1
 40
1
 40
1
 40
1
 10
219.095454
 20
181.785614
 30
0.0
 10
219.125020
 20
211.082428
 30
0.0
 10
219.247051
 20
215.926379
 30
0.0
 10
219.977500
 20
216.706782
 30
0.0
  0
SPLINE
  5
1ae
100
AcDbEntity
  8
Layer_1
 62
7
100
AcDbSpline
 70
8
 71
3
 72
8
 73
4
 74
0
 40
0
 40
0
 40
0
 40
0
 40
1
 40
1
 40
1
 40
1
 10
219.977500
 20
216.706782
 30
0.0
 10
220.847146
 20
217.635942
 30
0.0
 10
228.178637
 20
218.025567
 30
0.0
 10
230.085064
 20
217.243800
 30
0.0
  0
SPLINE
  5
1af
100
AcDbEntity
  8
Layer_1
 62
7
100
AcDbSpline
 70
8
 71
3
 72
8
 73
4
 74
0
 40
0
 40
0
 40
0
 40
0
 40
1
 40
1
 40
1
 40
1
 10
230.085064
 20
217.243800
 30
0.0
 10
230.891353
 20
216.913550
 30
0.0
 10
230.985024
 20
213.218376
 30
0.0
 10
230.985024
 20
181.749132
 30
0.0
  0
SPLINE
  5
1b0
100
AcDbEntity
  8
Layer_1
 62
7
100
AcDbSpline
 70
8
 71
3
 72
8
 73
4
 74
0
 40
0
 40
0
 40
0
 40
0
 40
1
 40
1
 40
1
 40
1
 10
230.985024
 20
181.749132
 30
0.0
 10
230.985024
 20
150.279888
 30
0.0
 10
230.891623
 20
146.585069
 30
0.0
 10
230.085064
 20
146.254521
 30
0.0
  0
SPLINE
  5
1b1
100
AcDbEntity
  8
Layer_1
 62
7
100
AcDbSpline
 70
8
 71
3
 72
8
 73
4
 74
0
 40
0
 40
0
 40
0
 40
0
 40
1
 40
1
 40
1
 40
1
 10
230.085064
 20
146.254521
 30
0.0
 10
229.589829
 20
146.051277
 30
0.0
 10
227.304214
 20
145.885507
 30
0.0
 10
225.005362
 20
145.885507
 30
0.0
  0
SPLINE
  5
1b2
100
AcDbEntity
  8
Layer_1
 62
7
100
AcDbSpline
 70
8
 71
3
 72
8
 73
4
 74
0
 40
0
 40
0
 40
0
 40
0
 40
1
 40
1
 40
1
 40
1
 10
225.005362
 20
145.885507
 30
0.0
 10
221.988213
 20
145.885507
 30
0.0
 10
220.580216
 20
146.147428
 30
0.0
 10
219.943518
 20
146.827885
 30
0.0
  0
LWPOLYLINE
  5
1b3
100
AcDbEntity
  8
Layer_1
 62
7
100
AcDbPolyline
 90
2
 70
0
 10
158.584440
 20
102.764367
 30
0.0
 10
158.584355
 20
102.765019
 30
0.0
  0
SPLINE
  5
1b4
100
AcDbEntity
  8
Layer_1
 62
7
100
AcDbSpline
 70
8
 71
3
 72
8
 73
4
 74
0
 40
0
 40
0
 40
0
 40
0
 40
1
 40
1
 40
1
 40
1
 10
248.166645
 20
146.614946
 30
0.0
 10
247.181212
 20
147.667876
 30
0.0
 10
247.181212
 20
215.830332
 30
0.0
 10
248.166645
 20
216.883264
 30
0.0
  0
SPLINE
  5
1b5
100
AcDbEntity
  8
Layer_1
 62
7
100
AcDbSpline
 70
8
 71
3
 72
8
 73
4
 74
0
 40
0
 40
0
 40
0
 40
0
 40
1
 40
1
 40
1
 40
1
 10
248.166645
 20
216.883264
 30
0.0
 10
249.204156
 20
217.991767
 30
0.0
 10
259.115475
 20
217.863397
 30
0.0
 10
260.178385
 20
216.727472
 30
0.0
  0
SPLINE
  5
1b6
100
AcDbEntity
  8
Layer_1
 62
7
100
AcDbSpline
 70
8
 71
3
 72
8
 73
4
 74
0
 40
0
 40
0
 40
0
 40
0
 40
1
 40
1
 40
1
 40
1
 10
260.178385
 20
216.727472
 30
0.0
 10
260.633975
 20
216.240707
 30
0.0
 10
267.350447
 20
204.889045
 30
0.0
 10
275.103892
 20
191.501376
 30
0.0
  0
SPLINE
  5
1b7
100
AcDbEntity
  8
Layer_1
 62
7
100
AcDbSpline
 70
8
 71
3
 72
8
 73
4
 74
0
 40
0
 40
0
 40
0
 40
0
 40
1
 40
1
 40
1
 40
1
 10
275.103892
 20
191.501376
 30
0.0
 10
282.857399
 20
178.113784
 30
0.0
 10
289.415493
 20
167.160203
 30
0.0
 10
289.677358
 20
167.160203
 30
0.0
  0
SPLINE
  5
1b8
100
AcDbEntity
  8
Layer_1
 62
7
100
AcDbSpline
 70
8
 71
3
 72
8
 73
4
 74
0
 40
0
 40
0
 40
0
 40
0
 40
1
 40
1
 40
1
 40
1
 10
289.677358
 20
167.160203
 30
0.0
 10
289.939279
 20
167.160203
 30
0.0
 10
290.153777
 20
178.183715
 30
0.0
 10
290.153777
 20
191.656882
 30
0.0
  0
SPLINE
  5
1b9
100
AcDbEntity
  8
Layer_1
 62
7
100
AcDbSpline
 70
8
 71
3
 72
8
 73
4
 74
0
 40
0
 40
0
 40
0
 40
0
 40
1
 40
1
 40
1
 40
1
 10
290.153777
 20
191.656882
 30
0.0
 10
290.153777
 20
209.899344
 30
0.0
 10
290.327824
 20
216.339783
 30
0.0
 10
290.836501
 20
216.882978
 30
0.0
  0
SPLINE
  5
1ba
100
AcDbEntity
  8
Layer_1
 62
7
100
AcDbSpline
 70
8
 71
3
 72
8
 73
4
 74
0
 40
0
 40
0
 40
0
 40
0
 40
1
 40
1
 40
1
 40
1
 10
290.836501
 20
216.882978
 30
0.0
 10
291.546835
 20
217.641912
 30
0.0
 10
298.992315
 20
217.915880
 30
0.0
 10
300.632441
 20
217.243383
 30
0.0
  0
SPLINE
  5
1bb
100
AcDbEntity
  8
Layer_1
 62
7
100
AcDbSpline
 70
8
 71
3
 72
8
 73
4
 74
0
 40
0
 40
0
 40
0
 40
0
 40
1
 40
1
 40
1
 40
1
 10
300.632441
 20
217.243383
 30
0.0
 10
301.438643
 20
216.913130
 30
0.0
 10
301.532328
 20
213.217957
 30
0.0
 10
301.532328
 20
181.748707
 30
0.0
  0
SPLINE
  5
1bc
100
AcDbEntity
  8
Layer_1
 62
7
100
AcDbSpline
 70
8
 71
3
 72
8
 73
4
 74
0
 40
0
 40
0
 40
0
 40
0
 40
1
 40
1
 40
1
 40
1
 10
301.532328
 20
181.748707
 30
0.0
 10
301.532328
 20
150.279463
 30
0.0
 10
301.439068
 20
146.584644
 30
0.0
 10
300.632441
 20
146.254124
 30
0.0
  0
SPLINE
  5
1bd
100
AcDbEntity
  8
Layer_1
 62
7
100
AcDbSpline
 70
8
 71
3
 72
8
 73
4
 74
0
 40
0
 40
0
 40
0
 40
0
 40
1
 40
1
 40
1
 40
1
 10
300.632441
 20
146.254124
 30
0.0
 10
298.945203
 20
145.562017
 30
0.0
 10
290.404019
 20
145.859967
 30
0.0
 10
289.398627
 20
146.645391
 30
0.0
  0
SPLINE
  5
1be
100
AcDbEntity
  8
Layer_1
 62
7
100
AcDbSpline
 70
8
 71
3
 72
8
 73
4
 74
0
 40
0
 40
0
 40
0
 40
0
 40
1
 40
1
 40
1
 40
1
 10
289.398627
 20
146.645391
 30
0.0
 10
288.863729
 20
147.063246
 30
0.0
 10
282.092498
 20
158.324499
 30
0.0
 10
274.351562
 20
171.670238
 30
0.0
  0
SPLINE
  5
1bf
100
AcDbEntity
  8
Layer_1
 62
7
100
AcDbSpline
 70
8
 71
3
 72
8
 73
4
 74
0
 40
0
 40
0
 40
0
 40
0
 40
1
 40
1
 40
1
 40
1
 10
274.351562
 20
171.670238
 30
0.0
 10
266.610616
 20
185.016005
 30
0.0
 10
259.958856
 20
196.048602
 30
0.0
 10
259.569923
 20
196.187094
 30
0.0
  0
SPLINE
  5
1c0
100
AcDbEntity
  8
Layer_1
 62
7
100
AcDbSpline
 70
8
 71
3
 72
8
 73
4
 74
0
 40
0
 40
0
 40
0
 40
0
 40
1
 40
1
 40
1
 40
1
 10
259.569923
 20
196.187094
 30
0.0
 10
259.014210
 20
196.385236
 30
0.0
 10
258.862681
 20
191.112970
 30
0.0
 10
258.862681
 20
171.531198
 30
0.0
  0
SPLINE
  5
1c1
100
AcDbEntity
  8
Layer_1
 62
7
100
AcDbSpline
 70
8
 71
3
 72
8
 73
4
 74
0
 40
0
 40
0
 40
0
 40
0
 40
1
 40
1
 40
1
 40
1
 10
258.862681
 20
171.531198
 30
0.0
 10
258.862681
 20
149.379321
 30
0.0
 10
258.763242
 20
146.582660
 30
0.0
 10
257.962789
 20
146.254465
 30
0.0
  0
SPLINE
  5
1c2
100
AcDbEntity
  8
Layer_1
 62
7
100
AcDbSpline
 70
8
 71
3
 72
8
 73
4
 74
0
 40
0
 40
0
 40
0
 40
0
 40
1
 40
1
 40
1
 40
1
 10
257.962789
 20
146.254465
 30
0.0
 10
256.322663
 20
145.581775
 30
0.0
 10
248.877180
 20
145.856027
 30
0.0
 10
248.166846
 20
146.614890
 30
0.0
  0
LWPOLYLINE
  5
1c3
100
AcDbEntity
  8
Layer_1
 62
7
100
AcDbPolyline
 90
2
 70
0
 10
219.943518
 20
146.827885
 30
0.0
 10
219.943518
 20
146.828112
 30
0.0
  0
SPLINE
  5
1c4
100
AcDbEntity
  8
Layer_1
 62
7
100
AcDbSpline
 70
8
 71
3
 72
8
 73
4
 74
0
 40
0
 40
0
 40
0
 40
0
 40
1
 40
1
 40
1
 40
1
 10
376.175578
 20
146.614946
 30
0.0
 10
375.190085
 20
147.667876
 30
0.0
 10
375.190085
 20
215.830332
 30
0.0
 10
376.175578
 20
216.883264
 30
0.0
  0
SPLINE
  5
1c5
100
AcDbEntity
  8
Layer_1
 62
7
100
AcDbSpline
 70
8
 71
3
 72
8
 73
4
 74
0
 40
0
 40
0
 40
0
 40
0
 40
1
 40
1
 40
1
 40
1
 10
376.175578
 20
216.883264
 30
0.0
 10
377.158520
 20
217.933469
 30
0.0
 10
387.120457
 20
217.868854
 30
0.0
 10
388.110854
 20
216.805737
 30
0.0
  0
SPLINE
  5
1c6
100
AcDbEntity
  8
Layer_1
 62
7
100
AcDbSpline
 70
8
 71
3
 72
8
 73
4
 74
0
 40
0
 40
0
 40
0
 40
0
 40
1
 40
1
 40
1
 40
1
 10
388.110854
 20
216.805737
 30
0.0
 10
388.524117
 20
216.362049
 30
0.0
 10
395.237408
 20
205.010246
 30
0.0
 10
403.028829
 20
191.579644
 30
0.0
  0
SPLINE
  5
1c7
100
AcDbEntity
  8
Layer_1
 62
7
100
AcDbSpline
 70
8
 71
3
 72
8
 73
4
 74
0
 40
0
 40
0
 40
0
 40
0
 40
1
 40
1
 40
1
 40
1
 10
403.028829
 20
191.579644
 30
0.0
 10
410.820249
 20
178.149104
 30
0.0
 10
417.412671
 20
167.160430
 30
0.0
 10
417.678759
 20
167.160430
 30
0.0
  0
SPLINE
  5
1c8
100
AcDbEntity
  8
Layer_1
 62
7
100
AcDbSpline
 70
8
 71
3
 72
8
 73
4
 74
0
 40
0
 40
0
 40
0
 40
0
 40
1
 40
1
 40
1
 40
1
 10
417.678759
 20
167.160430
 30
0.0
 10
417.944932
 20
167.160430
 30
0.0
 10
418.162577
 20
178.183913
 30
0.0
 10
418.162577
 20
191.657109
 30
0.0
  0
SPLINE
  5
1c9
100
AcDbEntity
  8
Layer_1
 62
7
100
AcDbSpline
 70
8
 71
3
 72
8
 73
4
 74
0
 40
0
 40
0
 40
0
 40
0
 40
1
 40
1
 40
1
 40
1
 10
418.162577
 20
191.657109
 30
0.0
 10
418.162577
 20
209.899570
 30
0.0
 10
418.336624
 20
216.340010
 30
0.0
 10
418.845301
 20
216.883205
 30
0.0
  0
SPLINE
  5
1ca
100
AcDbEntity
  8
Layer_1
 62
7
100
AcDbSpline
 70
8
 71
3
 72
8
 73
4
 74
0
 40
0
 40
0
 40
0
 40
0
 40
1
 40
1
 40
1
 40
1
 10
418.845301
 20
216.883205
 30
0.0
 10
419.555635
 20
217.642139
 30
0.0
 10
427.001115
 20
217.916107
 30
0.0
 10
428.641241
 20
217.243610
 30
0.0
  0
SPLINE
  5
1cb
100
AcDbEntity
  8
Layer_1
 62
7
100
AcDbSpline
 70
8
 71
3
 72
8
 73
4
 74
0
 40
0
 40
0
 40
0
 40
0
 40
1
 40
1
 40
1
 40
1
 10
428.641241
 20
217.243610
 30
0.0
 10
429.447443
 20
216.913357
 30
0.0
 10
429.541128
 20
213.218184
 30
0.0
 10
429.541128
 20
181.748934
 30
0.0
  0
SPLINE
  5
1cc
100
AcDbEntity
  8
Layer_1
 62
7
100
AcDbSpline
 70
8
 71
3
 72
8
 73
4
 74
0
 40
0
 40
0
 40
0
 40
0
 40
1
 40
1
 40
1
 40
1
 10
429.541128
 20
181.748934
 30
0.0
 10
429.541128
 20
150.279690
 30
0.0
 10
429.447868
 20
146.584871
 30
0.0
 10
428.641241
 20
146.254323
 30
0.0
  0
SPLINE
  5
1cd
100
AcDbEntity
  8
Layer_1
 62
7
100
AcDbSpline
 70
8
 71
3
 72
8
 73
4
 74
0
 40
0
 40
0
 40
0
 40
0
 40
1
 40
1
 40
1
 40
1
 10
428.641241
 20
146.254323
 30
0.0
 10
426.904142
 20
145.542146
 30
0.0
 10
418.411005
 20
145.860902
 30
0.0
 10
417.365616
 20
146.677904
 30
0.0
  0
SPLINE
  5
1ce
100
AcDbEntity
  8
Layer_1
 62
7
100
AcDbSpline
 70
8
 71
3
 72
8
 73
4
 74
0
 40
0
 40
0
 40
0
 40
0
 40
1
 40
1
 40
1
 40
1
 10
417.365616
 20
146.677904
 30
0.0
 10
416.807899
 20
147.113702
 30
0.0
 10
410.029326
 20
158.377479
 30
0.0
 10
402.302649
 20
171.708449
 30
0.0
  0
SPLINE
  5
1cf
100
AcDbEntity
  8
Layer_1
 62
7
100
AcDbSpline
 70
8
 71
3
 72
8
 73
4
 74
0
 40
0
 40
0
 40
0
 40
0
 40
1
 40
1
 40
1
 40
1
 10
402.302649
 20
171.708449
 30
0.0
 10
394.575943
 20
185.039334
 30
0.0
 10
387.943071
 20
196.057227
 30
0.0
 10
387.562803
 20
196.192633
 30
0.0
  0
SPLINE
  5
1d0
100
AcDbEntity
  8
Layer_1
 62
7
100
AcDbSpline
 70
8
 71
3
 72
8
 73
4
 74
0
 40
0
 40
0
 40
0
 40
0
 40
1
 40
1
 40
1
 40
1
 10
387.562803
 20
196.192633
 30
0.0
 10
387.027906
 20
196.382894
 30
0.0
 10
386.871490
 20
190.805700
 30
0.0
 10
386.871490
 20
171.531057
 30
0.0
  0
SPLINE
  5
1d1
100
AcDbEntity
  8
Layer_1
 62
7
100
AcDbSpline
 70
8
 71
3
 72
8
 73
4
 74
0
 40
0
 40
0
 40
0
 40
0
 40
1
 40
1
 40
1
 40
1
 10
386.871490
 20
171.531057
 30
0.0
 10
386.871490
 20
149.379180
 30
0.0
 10
386.771994
 20
146.582490
 30
0.0
 10
385.971575
 20
146.254323
 30
0.0
  0
SPLINE
  5
1d2
100
AcDbEntity
  8
Layer_1
 62
7
100
AcDbSpline
 70
8
 71
3
 72
8
 73
4
 74
0
 40
0
 40
0
 40
0
 40
0
 40
1
 40
1
 40
1
 40
1
 10
385.971575
 20
146.254323
 30
0.0
 10
384.331449
 20
145.581633
 30
0.0
 10
376.885969
 20
145.855885
 30
0.0
 10
376.175635
 20
146.614748
 30
0.0
  0
LWPOLYLINE
  5
1d3
100
AcDbEntity
  8
Layer_1
 62
7
100
AcDbPolyline
 90
2
 70
0
 10
248.166846
 20
146.614890
 30
0.0
 10
248.166645
 20
146.614946
 30
0.0
  0
SPLINE
  5
1d4
100
AcDbEntity
  8
Layer_1
 62
7
100
AcDbSpline
 70
8
 71
3
 72
8
 73
4
 74
0
 40
0
 40
0
 40
0
 40
0
 40
1
 40
1
 40
1
 40
1
 10
156.455361
 20
103.700282
 30
0.0
 10
130.067182
 20
106.886055
 30
0.0
 10
114.474083
 20
113.110540
 30
0.0
 10
104.643084
 20
124.382735
 30
0.0
  0
SPLINE
  5
1d5
100
AcDbEntity
  8
Layer_1
 62
7
100
AcDbSpline
 70
8
 71
3
 72
8
 73
4
 74
0
 40
0
 40
0
 40
0
 40
0
 40
1
 40
1
 40
1
 40
1
 10
104.643084
 20
124.382735
 30
0.0
 10
86.204527
 20
145.524458
 30
0.0
 10
99.429147
 20
179.358732
 30
0.0
 10
138.650433
 20
211.388270
 30
0.0
  0
SPLINE
  5
1d6
100
AcDbEntity
  8
Layer_1
 62
7
100
AcDbSpline
 70
8
 71
3
 72
8
 73
4
 74
0
 40
0
 40
0
 40
0
 40
0
 40
1
 40
1
 40
1
 40
1
 10
138.650433
 20
211.388270
 30
0.0
 10
180.555841
 20
245.609813
 30
0.0
 10
242.588346
 20
271.588312
 30
0.0
 10
301.816643
 20
279.720507
 30
0.0
  0
SPLINE
  5
1d7
100
AcDbEntity
  8
Layer_1
 62
7
100
AcDbSpline
 70
8
 71
3
 72
8
 73
4
 74
0
 40
0
 40
0
 40
0
 40
0
 40
1
 40
1
 40
1
 40
1
 10
301.816643
 20
279.720507
 30
0.0
 10
310.823956
 20
280.957232
 30
0.0
 10
314.489777
 20
281.127027
 30
0.0
 10
332.254274
 20
281.130256
 30
0.0
  0
SPLINE
  5
1d8
100
AcDbEntity
  8
Layer_1
 62
7
100
AcDbSpline
 70
8
 71
3
 72
8
 73
4
 74
0
 40
0
 40
0
 40
0
 40
0
 40
1
 40
1
 40
1
 40
1
 10
332.254274
 20
281.130256
 30
0.0
 10
353.629742
 20
281.133941
 30
0.0
 10
358.405184
 20
280.705235
 30
0.0
 10
370.656948
 20
277.681266
 30
0.0
  0
SPLINE
  5
1d9
100
AcDbEntity
  8
Layer_1
 62
7
100
AcDbSpline
 70
8
 71
3
 72
8
 73
4
 74
0
 40
0
 40
0
 40
0
 40
0
 40
1
 40
1
 40
1
 40
1
 10
370.656948
 20
277.681266
 30
0.0
 10
397.071934
 20
271.161496
 30
0.0
 10
411.252164
 20
256.632656
 30
0.0
 10
410.002652
 20
237.368205
 30
0.0
  0
SPLINE
  5
1da
100
AcDbEntity
  8
Layer_1
 62
7
100
AcDbSpline
 70
8
 71
3
 72
8
 73
4
 74
0
 40
0
 40
0
 40
0
 40
0
 40
1
 40
1
 40
1
 40
1
 10
410.002652
 20
237.368205
 30
0.0
 10
409.829172
 20
234.693658
 30
0.0
 10
409.354879
 20
231.547997
 30
0.0
 10
408.948476
 20
230.377895
 30
0.0
  0
SPLINE
  5
1db
100
AcDbEntity
  8
Layer_1
 62
7
100
AcDbSpline
 70
8
 71
3
 72
8
 73
4
 74
0
 40
0
 40
0
 40
0
 40
0
 40
1
 40
1
 40
1
 40
1
 10
408.948476
 20
230.377895
 30
0.0
 10
408.210391
 20
228.252430
 30
0.0
 10
408.209399
 20
228.254726
 30
0.0
 10
407.896992
 20
232.809276
 30
0.0
  0
SPLINE
  5
1dc
100
AcDbEntity
  8
Layer_1
 62
7
100
AcDbSpline
 70
8
 71
3
 72
8
 73
4
 74
0
 40
0
 40
0
 40
0
 40
0
 40
1
 40
1
 40
1
 40
1
 10
407.896992
 20
232.809276
 30
0.0
 10
406.758343
 20
249.407796
 30
0.0
 10
389.825021
 20
263.201462
 30
0.0
 10
364.638769
 20
268.046994
 30
0.0
  0
SPLINE
  5
1dd
100
AcDbEntity
  8
Layer_1
 62
7
100
AcDbSpline
 70
8
 71
3
 72
8
 73
4
 74
0
 40
0
 40
0
 40
0
 40
0
 40
1
 40
1
 40
1
 40
1
 10
364.638769
 20
268.046994
 30
0.0
 10
344.180592
 20
271.982891
 30
0.0
 10
313.785169
 20
270.582477
 30
0.0
 10
284.760268
 20
264.366825
 30
0.0
  0
SPLINE
  5
1de
100
AcDbEntity
  8
Layer_1
 62
7
100
AcDbSpline
 70
8
 71
3
 72
8
 73
4
 74
0
 40
0
 40
0
 40
0
 40
0
 40
1
 40
1
 40
1
 40
1
 10
284.760268
 20
264.366825
 30
0.0
 10
243.850024
 20
255.605856
 30
0.0
 10
204.883525
 20
239.036054
 30
0.0
 10
174.039045
 20
217.284579
 30
0.0
  0
SPLINE
  5
1df
100
AcDbEntity
  8
Layer_1
 62
7
100
AcDbSpline
 70
8
 71
3
 72
8
 73
4
 74
0
 40
0
 40
0
 40
0
 40
0
 40
1
 40
1
 40
1
 40
1
 10
174.039045
 20
217.284579
 30
0.0
 10
162.183953
 20
208.924367
 30
0.0
 10
154.711280
 20
202.509774
 30
0.0
 10
146.499107
 20
193.644060
 30
0.0
  0
SPLINE
  5
1e0
100
AcDbEntity
  8
Layer_1
 62
7
100
AcDbSpline
 70
8
 71
3
 72
8
 73
4
 74
0
 40
0
 40
0
 40
0
 40
0
 40
1
 40
1
 40
1
 40
1
 10
146.499107
 20
193.644060
 30
0.0
 10
132.627159
 20
178.668156
 30
0.0
 10
125.740016
 20
164.829898
 30
0.0
 10
125.755533
 20
151.964320
 30
0.0
  0
SPLINE
  5
1e1
100
AcDbEntity
  8
Layer_1
 62
7
100
AcDbSpline
 70
8
 71
3
 72
8
 73
4
 74
0
 40
0
 40
0
 40
0
 40
0
 40
1
 40
1
 40
1
 40
1
 10
125.755533
 20
151.964320
 30
0.0
 10
125.766305
 20
142.914515
 30
0.0
 10
128.356686
 20
136.406027
 30
0.0
 10
134.581200
 20
129.788178
 30
0.0
  0
SPLINE
  5
1e2
100
AcDbEntity
  8
Layer_1
 62
7
100
AcDbSpline
 70
8
 71
3
 72
8
 73
4
 74
0
 40
0
 40
0
 40
0
 40
0
 40
1
 40
1
 40
1
 40
1
 10
134.581200
 20
129.788178
 30
0.0
 10
142.708452
 20
121.147271
 30
0.0
 10
154.674611
 20
115.747186
 30
0.0
 10
173.238751
 20
112.342776
 30
0.0
  0
SPLINE
  5
1e3
100
AcDbEntity
  8
Layer_1
 62
7
100
AcDbSpline
 70
8
 71
3
 72
8
 73
4
 74
0
 40
0
 40
0
 40
0
 40
0
 40
1
 40
1
 40
1
 40
1
 10
173.238751
 20
112.342776
 30
0.0
 10
179.792914
 20
111.140802
 30
0.0
 10
182.674835
 20
110.983422
 30
0.0
 10
198.556074
 20
110.960518
 30
0.0
  0
SPLINE
  5
1e4
100
AcDbEntity
  8
Layer_1
 62
7
100
AcDbSpline
 70
8
 71
3
 72
8
 73
4
 74
0
 40
0
 40
0
 40
0
 40
0
 40
1
 40
1
 40
1
 40
1
 10
198.556074
 20
110.960518
 30
0.0
 10
212.543236
 20
110.937841
 30
0.0
 10
218.288252
 20
111.175951
 30
0.0
 10
224.726784
 20
112.034225
 30
0.0
  0
SPLINE
  5
1e5
100
AcDbEntity
  8
Layer_1
 62
7
100
AcDbSpline
 70
8
 71
3
 72
8
 73
4
 74
0
 40
0
 40
0
 40
0
 40
0
 40
1
 40
1
 40
1
 40
1
 10
224.726784
 20
112.034225
 30
0.0
 10
235.221952
 20
113.433123
 30
0.0
 10
247.275152
 20
115.643438
 30
0.0
 10
256.955583
 20
117.944320
 30
0.0
  0
SPLINE
  5
1e6
100
AcDbEntity
  8
Layer_1
 62
7
100
AcDbSpline
 70
8
 71
3
 72
8
 73
4
 74
0
 40
0
 40
0
 40
0
 40
0
 40
1
 40
1
 40
1
 40
1
 10
256.955583
 20
117.944320
 30
0.0
 10
269.393214
 20
120.900657
 30
0.0
 10
267.634217
 20
119.918140
 30
0.0
 10
252.577543
 20
115.499154
 30
0.0
  0
SPLINE
  5
1e7
100
AcDbEntity
  8
Layer_1
 62
7
100
AcDbSpline
 70
8
 71
3
 72
8
 73
4
 74
0
 40
0
 40
0
 40
0
 40
0
 40
1
 40
1
 40
1
 40
1
 10
252.577543
 20
115.499154
 30
0.0
 10
235.833170
 20
110.584843
 30
0.0
 10
221.707702
 20
107.555967
 30
0.0
 10
203.960893
 20
105.074631
 30
0.0
  0
SPLINE
  5
1e8
100
AcDbEntity
  8
Layer_1
 62
7
100
AcDbSpline
 70
8
 71
3
 72
8
 73
4
 74
0
 40
0
 40
0
 40
0
 40
0
 40
1
 40
1
 40
1
 40
1
 10
203.960893
 20
105.074631
 30
0.0
 10
196.714855
 20
104.061472
 30
0.0
 10
191.144405
 20
103.766981
 30
0.0
 10
176.652322
 20
103.630861
 30
0.0
  0
SPLINE
  5
1e9
100
AcDbEntity
  8
Layer_1
 62
7
100
AcDbSpline
 70
8
 71
3
 72
8
 73
4
 74
0
 40
0
 40
0
 40
0
 40
0
 40
1
 40
1
 40
1
 40
1
 10
176.652322
 20
103.630861
 30
0.0
 10
166.639180
 20
103.536751
 30
0.0
 10
157.550546
 20
103.566231
 30
0.0
 10
156.455361
 20
103.702578
 30
0.0
  0
LWPOLYLINE
  5
1ea
100
AcDbEntity
  8
Layer_1
 62
7
100
AcDbPolyline
 90
2
 70
0
 10
376.175635
 20
146.614748
 30
0.0
 10
376.175578
 20
146.614946
 30
0.0
  0
LWPOLYLINE
  5
1eb
100
AcDbEntity
  8
Layer_1
 62
7
100
AcDbPolyline
 90
2
 70
0
 10
156.455361
 20
103.702578
 30
0.0
 10
156.455361
 20
103.700282
 30
0.0
  0
LWPOLYLINE
  5
1ec
100
AcDbEntity
  8
Layer_1
 62
7
100
AcDbPolyline
 90
8
 70
1
 10
220.175358
 20
181.749274
 30
0.0
 10
220.175358
 20
216.397134
 30
0.0
 10
225.295714
 20
216.397134
 30
0.0
 10
230.416074
 20
216.397134
 30
0.0
 10
230.416074
 20
181.749274
 30
0.0
 10
230.416074
 20
147.101428
 30
0.0
 10
225.295714
 20
147.101428
 30
0.0
 10
220.175358
 20
147.101428
 30
0.0
  0
SPLINE
  5
1ed
100
AcDbEntity
  8
Layer_1
 62
7
100
AcDbSpline
 70
8
 71
3
 72
8
 73
4
 74
0
 40
0
 40
0
 40
0
 40
0
 40
1
 40
1
 40
1
 40
1
 10
273.971635
 20
191.977931
 30
0.0
 10
281.763651
 20
178.547400
 30
0.0
 10
288.587040
 20
166.990493
 30
0.0
 10
289.134750
 20
166.296005
 30
0.0
  0
SPLINE
  5
1ee
100
AcDbEntity
  8
Layer_1
 62
7
100
AcDbSpline
 70
8
 71
3
 72
8
 73
4
 74
0
 40
0
 40
0
 40
0
 40
0
 40
1
 40
1
 40
1
 40
1
 10
289.134750
 20
166.296005
 30
0.0
 10
289.992967
 20
165.207557
 30
0.0
 10
290.209421
 20
165.159085
 30
0.0
 10
290.702224
 20
165.944934
 30
0.0
  0
SPLINE
  5
1ef
100
AcDbEntity
  8
Layer_1
 62
7
100
AcDbSpline
 70
8
 71
3
 72
8
 73
4
 74
0
 40
0
 40
0
 40
0
 40
0
 40
1
 40
1
 40
1
 40
1
 10
290.702224
 20
165.944934
 30
0.0
 10
291.061742
 20
166.517872
 30
0.0
 10
291.277430
 20
176.057306
 30
0.0
 10
291.282816
 20
191.626931
 30
0.0
  0
LWPOLYLINE
  5
1f0
100
AcDbEntity
  8
Layer_1
 62
7
100
AcDbPolyline
 90
5
 70
0
 10
248.621764
 20
181.749274
 30
0.0
 10
248.621764
 20
216.397134
 30
0.0
 10
254.213035
 20
216.397134
 30
0.0
 10
259.804303
 20
216.397134
 30
0.0
 10
273.971635
 20
191.977931
 30
0.0
  0
SPLINE
  5
1f1
100
AcDbEntity
  8
Layer_1
 62
7
100
AcDbSpline
 70
8
 71
3
 72
8
 73
4
 74
0
 40
0
 40
0
 40
0
 40
0
 40
1
 40
1
 40
1
 40
1
 10
274.658339
 20
172.630701
 30
0.0
 10
266.603722
 20
186.505053
 30
0.0
 10
259.689893
 20
197.856785
 30
0.0
 10
259.294378
 20
197.856785
 30
0.0
  0
SPLINE
  5
1f2
100
AcDbEntity
  8
Layer_1
 62
7
100
AcDbSpline
 70
8
 71
3
 72
8
 73
4
 74
0
 40
0
 40
0
 40
0
 40
0
 40
1
 40
1
 40
1
 40
1
 10
259.294378
 20
197.856785
 30
0.0
 10
258.728586
 20
197.856785
 30
0.0
 10
258.543458
 20
192.444296
 30
0.0
 10
258.426605
 20
172.478764
 30
0.0
  0
LWPOLYLINE
  5
1f3
100
AcDbEntity
  8
Layer_1
 62
7
100
AcDbPolyline
 90
9
 70
0
 10
291.282816
 20
191.626931
 30
0.0
 10
291.288485
 20
216.397060
 30
0.0
 10
296.124391
 20
216.397060
 30
0.0
 10
300.960325
 20
216.397060
 30
0.0
 10
300.960325
 20
181.727957
 30
0.0
 10
300.960325
 20
147.058852
 30
0.0
 10
295.131698
 20
147.231765
 30
0.0
 10
289.303099
 20
147.404679
 30
0.0
 10
274.658339
 20
172.630701
 30
0.0
  0
SPLINE
  5
1f4
100
AcDbEntity
  8
Layer_1
 62
7
100
AcDbSpline
 70
8
 71
3
 72
8
 73
4
 74
0
 40
0
 40
0
 40
0
 40
0
 40
1
 40
1
 40
1
 40
1
 10
376.331739
 20
147.836509
 30
0.0
 10
376.177251
 20
148.267998
 30
0.0
 10
376.117440
 20
163.802310
 30
0.0
 10
376.198794
 20
182.357164
 30
0.0
  0
LWPOLYLINE
  5
1f5
100
AcDbEntity
  8
Layer_1
 62
7
100
AcDbPolyline
 90
5
 70
0
 10
258.426605
 20
172.478764
 30
0.0
 10
258.278098
 20
147.100691
 30
0.0
 10
253.448432
 20
147.100691
 30
0.0
 10
248.618765
 20
147.100691
 30
0.0
 10
248.621764
 20
181.749274
 30
0.0
  0
SPLINE
  5
1f6
100
AcDbEntity
  8
Layer_1
 62
7
100
AcDbSpline
 70
8
 71
3
 72
8
 73
4
 74
0
 40
0
 40
0
 40
0
 40
0
 40
1
 40
1
 40
1
 40
1
 10
401.911099
 20
191.950421
 30
0.0
 10
409.695320
 20
178.483082
 30
0.0
 10
416.544844
 20
166.917331
 30
0.0
 10
417.132353
 20
166.248638
 30
0.0
  0
SPLINE
  5
1f7
100
AcDbEntity
  8
Layer_1
 62
7
100
AcDbSpline
 70
8
 71
3
 72
8
 73
4
 74
0
 40
0
 40
0
 40
0
 40
0
 40
1
 40
1
 40
1
 40
1
 10
417.132353
 20
166.248638
 30
0.0
 10
418.054208
 20
165.199422
 30
0.0
 10
418.274630
 20
165.157781
 30
0.0
 10
418.741978
 20
165.944934
 30
0.0
  0
SPLINE
  5
1f8
100
AcDbEntity
  8
Layer_1
 62
7
100
AcDbSpline
 70
8
 71
3
 72
8
 73
4
 74
0
 40
0
 40
0
 40
0
 40
0
 40
1
 40
1
 40
1
 40
1
 10
418.741978
 20
165.944934
 30
0.0
 10
419.061159
 20
166.482666
 30
0.0
 10
419.286939
 20
177.011646
 30
0.0
 10
419.292296
 20
191.626917
 30
0.0
  0
LWPOLYLINE
  5
1f9
100
AcDbEntity
  8
Layer_1
 62
7
100
AcDbPolyline
 90
5
 70
0
 10
376.198794
 20
182.357164
 30
0.0
 10
376.346762
 20
216.093229
 30
0.0
 10
382.052394
 20
216.264810
 30
0.0
 10
387.758082
 20
216.436391
 30
0.0
 10
401.911099
 20
191.950421
 30
0.0
  0
SPLINE
  5
1fa
100
AcDbEntity
  8
Layer_1
 62
7
100
AcDbSpline
 70
8
 71
3
 72
8
 73
4
 74
0
 40
0
 40
0
 40
0
 40
0
 40
1
 40
1
 40
1
 40
1
 10
414.562718
 20
152.116172
 30
0.0
 10
412.911112
 20
154.874367
 30
0.0
 10
406.220895
 20
166.362846
 30
0.0
 10
399.695597
 20
177.646181
 30
0.0
  0
SPLINE
  5
1fb
100
AcDbEntity
  8
Layer_1
 62
7
100
AcDbSpline
 70
8
 71
3
 72
8
 73
4
 74
0
 40
0
 40
0
 40
0
 40
0
 40
1
 40
1
 40
1
 40
1
 10
399.695597
 20
177.646181
 30
0.0
 10
393.170299
 20
188.929539
 30
0.0
 10
387.489669
 20
198.161334
 30
0.0
 10
387.072041
 20
198.161334
 30
0.0
  0
SPLINE
  5
1fc
100
AcDbEntity
  8
Layer_1
 62
7
100
AcDbSpline
 70
8
 71
3
 72
8
 73
4
 74
0
 40
0
 40
0
 40
0
 40
0
 40
1
 40
1
 40
1
 40
1
 10
387.072041
 20
198.161334
 30
0.0
 10
386.453181
 20
198.161334
 30
0.0
 10
386.285115
 20
193.461256
 30
0.0
 10
386.164161
 20
172.783346
 30
0.0
  0
LWPOLYLINE
  5
1fd
100
AcDbEntity
  8
Layer_1
 62
7
100
AcDbPolyline
 90
9
 70
0
 10
419.292296
 20
191.626917
 30
0.0
 10
419.297966
 20
216.397046
 30
0.0
 10
424.133899
 20
216.397046
 30
0.0
 10
428.969805
 20
216.397046
 30
0.0
 10
428.969805
 20
181.749217
 30
0.0
 10
428.969805
 20
147.101343
 30
0.0
 10
423.267745
 20
147.101343
 30
0.0
 10
417.565657
 20
147.101343
 30
0.0
 10
414.562718
 20
152.116172
 30
0.0
  0
SPLINE
  5
1fe
100
AcDbEntity
  8
Layer_1
 62
7
100
AcDbSpline
 70
8
 71
3
 72
8
 73
4
 74
0
 40
0
 40
0
 40
0
 40
0
 40
1
 40
1
 40
1
 40
1
 10
381.313033
 20
147.228732
 30
0.0
 10
377.872766
 20
147.099472
 30
0.0
 10
376.534954
 20
147.264732
 30
0.0
 10
376.329358
 20
147.836820
 30
0.0
  0
LWPOLYLINE
  5
1ff
100
AcDbEntity
  8
Layer_1
 62
7
100
AcDbPolyline
 90
3
 70
0
 10
386.164161
 20
172.783346
 30
0.0
 10
386.015625
 20
147.405331
 30
0.0
 10
381.313033
 20
147.228732
 30
0.0
  0
LWPOLYLINE
  5
200
100
AcDbEntity
  8
Layer_1
 62
7
100
AcDbPolyline
 90
2
 70
0
 10
376.329358
 20
147.836820
 30
0.0
 10
376.331739
 20
147.836509
 30
0.0
  0
ENDSEC
  0
SECTION
  2
OBJECTS
  0
DICTIONARY
  5
C
330
0
100
AcDbDictionary
  3
ACAD_GROUP
350
D
  3
ACAD_MLINESTYLE
350
17
  0
DICTIONARY
  5
D
330
C
100
AcDbDictionary
  0
DICTIONARY
  5
1A
330
C
100
AcDbDictionary
  0
DICTIONARY
  5
17
330
C
100
AcDbDictionary
  3
STANDARD
350
18
  0
DICTIONARY
  5
19
330
C
100
AcDbDictionary
  0
ENDSEC
  0
EOF
