  0
SECTION
  2
HEADER
  9
$ACADVER
  1
AC1014
  9
$HANDSEED
  5
FFFF
  9
$MEASUREMENT
 70
     1
  0
ENDSEC
  0
SECTION
  2
TABLES
  0
TABLE
  2
VPORT
  5
8
330
0
100
AcDbSymbolTable
 70
     4
  0
VPORT
  5
2E
330
8
100
AcDbSymbolTableRecord
100
AcDbViewportTableRecord
  2
*ACTIVE
 70
     0
 10
0.0
 20
0.0
 11
1.0
 21
1.0
 12
210.0
 22
148.5
 13
0.0
 23
0.0
 14
10.0
 24
10.0
 15
10.0
 25
10.0
 16
0.0
 26
0.0
 36
1.0
 17
0.0
 27
0.0
 37
0.0
 40
341.0
 41
1.24
 42
50.0
 43
0.0
 44
0.0
 50
0.0
 51
0.0
 71
     0
 72
   100
 73
     1
 74
     3
 75
     0
 76
     0
 77
     0
 78
     0
  0
ENDTAB
  0
TABLE
  2
LTYPE
  5
5
330
0
100
AcDbSymbolTable
 70
     1
  0
LTYPE
  5
14
330
5
100
AcDbSymbolTableRecord
100
AcDbLinetypeTableRecord
  2
BYBLOCK
 70
     0
  3

 72
    65
 73
     0
 40
0.0
  0
LTYPE
  5
15
330
5
100
AcDbSymbolTableRecord
100
AcDbLinetypeTableRecord
  2
BYLAYER
 70
     0
  3

 72
    65
 73
     0
 40
0.0
  0
LTYPE
  5
16
330
5
100
AcDbSymbolTableRecord
100
AcDbLinetypeTableRecord
  2
CONTINUOUS
 70
     0
  3
Solid line
 72
    65
 73
     0
 40
0.0
  0
ENDTAB
  0
TABLE
  2
LAYER
  5
2
100
AcDbSymbolTable
 70
3
  0
LAYER
  5
50
100
AcDbSymbolTableRecord
100
AcDbLayerTableRecord
  2
0
 70
0
  6
CONTINUOUS
  0
LAYER
  5
51
100
AcDbSymbolTableRecord
100
AcDbLayerTableRecord
  2
Image
 70
0
  6
CONTINUOUS
  0
LAYER
  5
52
100
AcDbSymbolTableRecord
100
AcDbLayerTableRecord
  2
Vector
 70
0
  6
CONTINUOUS
  0
ENDTAB
  0
TABLE
  2
STYLE
  5
3
330
0
100
AcDbSymbolTable
 70
     1
  0
STYLE
  5
11
330
3
100
AcDbSymbolTableRecord
100
AcDbTextStyleTableRecord
  2
STANDARD
 70
     0
 40
0.0
 41
1.0
 50
0.0
 71
     0
 42
2.5
  3
txt
  4

  0
ENDTAB
  0
TABLE
  2
VIEW
  5
6
330
0
100
AcDbSymbolTable
 70
     0
  0
ENDTAB
  0
TABLE
  2
UCS
  5
7
330
0
100
AcDbSymbolTable
 70
     0
  0
ENDTAB
  0
TABLE
  2
APPID
  5
9
330
0
100
AcDbSymbolTable
 70
     2
  0
APPID
  5
12
330
9
100
AcDbSymbolTableRecord
100
AcDbRegAppTableRecord
  2
ACAD
 70
     0
  0
ENDTAB
  0
TABLE
  2
DIMSTYLE
  5
A
330
0
100
AcDbSymbolTable
 70
     1
  0
DIMSTYLE
105
27
330
A
100
AcDbSymbolTableRecord
100
AcDbDimStyleTableRecord
  2
ISO-25
 70
     0
  3

  4

  5

  6

  7

 40
1.0
 41
2.5
 42
0.625
 43
3.75
 44
1.25
 45
0.0
 46
0.0
 47
0.0
 48
0.0
140
2.5
141
2.5
142
0.0
143
0.03937007874016
144
1.0
145
0.0
146
1.0
147
0.625
 71
     0
 72
     0
 73
     0
 74
     0
 75
     0
 76
     0
 77
     1
 78
     8
170
     0
171
     3
172
     1
173
     0
174
     0
175
     0
176
     0
177
     0
178
     0
270
     2
271
     2
272
     2
273
     2
274
     3
340
11
275
     0
280
     0
281
     0
282
     0
283
     0
284
     8
285
     0
286
     0
287
     3
288
     0
  0
ENDTAB
  0
TABLE
  2
BLOCK_RECORD
  5
1
330
0
100
AcDbSymbolTable
 70
     1
  0
BLOCK_RECORD
  5
1F
330
1
100
AcDbSymbolTableRecord
100
AcDbBlockTableRecord
  2
*MODEL_SPACE
  0
BLOCK_RECORD
  5
1B
330
1
100
AcDbSymbolTableRecord
100
AcDbBlockTableRecord
  2
*PAPER_SPACE
  0
ENDTAB
  0
ENDSEC
  0
SECTION
  2
BLOCKS
  0
BLOCK
  5
20
330
1F
100
AcDbEntity
  8
0
100
AcDbBlockBegin
  2
*MODEL_SPACE
 70
     0
 10
0.0
 20
0.0
 30
0.0
  3
*MODEL_SPACE
  1

  0
ENDBLK
  5
21
330
1F
100
AcDbEntity
  8
0
100
AcDbBlockEnd
  0
BLOCK
  5
1C
330
1B
100
AcDbEntity
 67
     1
  8
0
100
AcDbBlockBegin
  2
*PAPER_SPACE
  1

  0
ENDBLK
  5
1D
330
1B
100
AcDbEntity
 67
     1
  8
0
100
AcDbBlockEnd
  0
ENDSEC
  0
SECTION
  2
ENTITIES
  0
SPLINE
  5
100
100
AcDbEntity
  8
Vector
 62
7
100
AcDbSpline
 70
8
 71
3
 72
8
 73
4
 74
0
 40
0
 40
0
 40
0
 40
0
 40
1
 40
1
 40
1
 40
1
 10
190.844639
 20
384.000004
 30
0.0
 10
119.215151
 20
384.000004
 30
0.0
 10
56.870585
 20
344.273483
 30
0.0
 10
24.262582
 20
285.479216
 30
0.0
  0
SPLINE
  5
101
100
AcDbEntity
  8
Vector
 62
7
100
AcDbSpline
 70
8
 71
3
 72
8
 73
4
 74
0
 40
0
 40
0
 40
0
 40
0
 40
1
 40
1
 40
1
 40
1
 10
32.875273
 20
285.479216
 30
0.0
 10
63.430817
 20
332.223547
 30
0.0
 10
115.351832
 20
365.515156
 30
0.0
 10
174.039387
 20
366.354489
 30
0.0
  0
SPLINE
  5
102
100
AcDbEntity
  8
Vector
 62
7
100
AcDbSpline
 70
8
 71
3
 72
8
 73
4
 74
0
 40
0
 40
0
 40
0
 40
0
 40
1
 40
1
 40
1
 40
1
 10
174.039387
 20
366.354489
 30
0.0
 10
177.405533
 20
366.567947
 30
0.0
 10
180.763767
 20
366.779182
 30
0.0
 10
184.122538
 20
366.774621
 30
0.0
  0
SPLINE
  5
103
100
AcDbEntity
  8
Vector
 62
7
100
AcDbSpline
 70
8
 71
3
 72
8
 73
4
 74
0
 40
0
 40
0
 40
0
 40
0
 40
1
 40
1
 40
1
 40
1
 10
184.122538
 20
366.774621
 30
0.0
 10
234.504078
 20
366.706206
 30
0.0
 10
283.513543
 20
342.329640
 30
0.0
 10
316.673961
 20
303.964992
 30
0.0
  0
SPLINE
  5
104
100
AcDbEntity
  8
Vector
 62
7
100
AcDbSpline
 70
8
 71
3
 72
8
 73
4
 74
0
 40
0
 40
0
 40
0
 40
0
 40
1
 40
1
 40
1
 40
1
 10
316.673961
 20
303.964992
 30
0.0
 10
393.875721
 20
221.181072
 30
0.0
 10
365.988629
 20
76.347303
 30
0.0
 10
261.846827
 20
29.829324
 30
0.0
  0
SPLINE
  5
105
100
AcDbEntity
  8
Vector
 62
7
100
AcDbSpline
 70
8
 71
3
 72
8
 73
4
 74
0
 40
0
 40
0
 40
0
 40
0
 40
1
 40
1
 40
1
 40
1
 10
261.846827
 20
29.829324
 30
0.0
 10
182.447135
 20
-11.936855
 30
0.0
 10
81.548310
 20
17.268400
 30
0.0
 10
32.665208
 20
96.000003
 30
0.0
  0
LWPOLYLINE
  5
106
100
AcDbEntity
  8
Vector
 62
7
100
AcDbPolyline
 90
2
 70
0
 10
24.262582
 20
285.479216
 30
0.0
 10
32.875273
 20
285.479216
 30
0.0
  0
SPLINE
  5
107
100
AcDbEntity
  8
Vector
 62
7
100
AcDbSpline
 70
8
 71
3
 72
8
 73
4
 74
0
 40
0
 40
0
 40
0
 40
0
 40
1
 40
1
 40
1
 40
1
 10
25.733041
 20
96.000003
 30
0.0
 10
58.720937
 20
38.626107
 30
0.0
 10
120.268034
 20
0.000002
 30
0.0
 10
190.844639
 20
0.000002
 30
0.0
  0
SPLINE
  5
108
100
AcDbEntity
  8
Vector
 62
7
100
AcDbSpline
 70
8
 71
3
 72
8
 73
4
 74
0
 40
0
 40
0
 40
0
 40
0
 40
1
 40
1
 40
1
 40
1
 10
190.844639
 20
0.000002
 30
0.0
 10
296.168260
 20
0.000002
 30
0.0
 10
381.584246
 20
85.933731
 30
0.0
 10
381.584246
 20
192.000003
 30
0.0
  0
SPLINE
  5
109
100
AcDbEntity
  8
Vector
 62
7
100
AcDbSpline
 70
8
 71
3
 72
8
 73
4
 74
0
 40
0
 40
0
 40
0
 40
0
 40
1
 40
1
 40
1
 40
1
 10
381.584246
 20
192.000003
 30
0.0
 10
381.584246
 20
298.066275
 30
0.0
 10
296.168260
 20
384.000004
 30
0.0
 10
190.844639
 20
384.000004
 30
0.0
  0
LWPOLYLINE
  5
10a
100
AcDbEntity
  8
Vector
 62
7
100
AcDbPolyline
 90
2
 70
0
 10
32.665208
 20
96.000003
 30
0.0
 10
25.733041
 20
96.000003
 30
0.0
  0
SPLINE
  5
10b
100
AcDbEntity
  8
Vector
 62
7
100
AcDbSpline
 70
8
 71
3
 72
8
 73
4
 74
0
 40
0
 40
0
 40
0
 40
0
 40
1
 40
1
 40
1
 40
1
 10
332.180993
 20
338.326434
 30
0.0
 10
332.180993
 20
328.959372
 30
0.0
 10
328.459943
 20
319.975961
 30
0.0
 10
321.836430
 20
313.352447
 30
0.0
  0
SPLINE
  5
10c
100
AcDbEntity
  8
Vector
 62
7
100
AcDbSpline
 70
8
 71
3
 72
8
 73
4
 74
0
 40
0
 40
0
 40
0
 40
0
 40
1
 40
1
 40
1
 40
1
 10
321.836430
 20
313.352447
 30
0.0
 10
315.212917
 20
306.728934
 30
0.0
 10
306.229505
 20
303.007884
 30
0.0
 10
296.862443
 20
303.007884
 30
0.0
  0
SPLINE
  5
10d
100
AcDbEntity
  8
Vector
 62
7
100
AcDbSpline
 70
8
 71
3
 72
8
 73
4
 74
0
 40
0
 40
0
 40
0
 40
0
 40
1
 40
1
 40
1
 40
1
 10
296.862443
 20
303.007884
 30
0.0
 10
287.495381
 20
303.007884
 30
0.0
 10
278.511969
 20
306.728934
 30
0.0
 10
271.888456
 20
313.352447
 30
0.0
  0
SPLINE
  5
10e
100
AcDbEntity
  8
Vector
 62
7
100
AcDbSpline
 70
8
 71
3
 72
8
 73
4
 74
0
 40
0
 40
0
 40
0
 40
0
 40
1
 40
1
 40
1
 40
1
 10
271.888456
 20
313.352447
 30
0.0
 10
265.264943
 20
319.975961
 30
0.0
 10
261.543892
 20
328.959372
 30
0.0
 10
261.543893
 20
338.326434
 30
0.0
  0
SPLINE
  5
10f
100
AcDbEntity
  8
Vector
 62
7
100
AcDbSpline
 70
8
 71
3
 72
8
 73
4
 74
0
 40
0
 40
0
 40
0
 40
0
 40
1
 40
1
 40
1
 40
1
 10
261.543893
 20
338.326434
 30
0.0
 10
261.543895
 20
357.832329
 30
0.0
 10
277.356548
 20
373.644980
 30
0.0
 10
296.862443
 20
373.644979
 30
0.0
  0
SPLINE
  5
110
100
AcDbEntity
  8
Vector
 62
7
100
AcDbSpline
 70
8
 71
3
 72
8
 73
4
 74
0
 40
0
 40
0
 40
0
 40
0
 40
1
 40
1
 40
1
 40
1
 10
296.862443
 20
373.644979
 30
0.0
 10
316.368337
 20
373.644980
 30
0.0
 10
332.180991
 20
357.832329
 30
0.0
 10
332.180993
 20
338.326434
 30
0.0
  0
LWPOLYLINE
  5
111
100
AcDbEntity
  8
Vector
 62
7
100
AcDbPolyline
 90
1
 70
1
 10
190.844639
 20
384.000004
 30
0.0
  0
SPLINE
  5
112
100
AcDbEntity
  8
Vector
 62
7
100
AcDbSpline
 70
8
 71
3
 72
8
 73
4
 74
0
 40
0
 40
0
 40
0
 40
0
 40
1
 40
1
 40
1
 40
1
 10
107.238512
 20
252.288843
 30
0.0
 10
73.191657
 20
252.288843
 30
0.0
 10
45.479212
 20
224.786464
 30
0.0
 10
45.479212
 20
190.739609
 30
0.0
  0
SPLINE
  5
113
100
AcDbEntity
  8
Vector
 62
7
100
AcDbSpline
 70
8
 71
3
 72
8
 73
4
 74
0
 40
0
 40
0
 40
0
 40
0
 40
1
 40
1
 40
1
 40
1
 10
45.479212
 20
190.739609
 30
0.0
 10
45.479212
 20
156.692754
 30
0.0
 10
73.191657
 20
128.980309
 30
0.0
 10
107.238512
 20
128.980309
 30
0.0
  0
SPLINE
  5
114
100
AcDbEntity
  8
Vector
 62
7
100
AcDbSpline
 70
8
 71
3
 72
8
 73
4
 74
0
 40
0
 40
0
 40
0
 40
0
 40
1
 40
1
 40
1
 40
1
 10
107.238512
 20
128.980309
 30
0.0
 10
136.117544
 20
128.980309
 30
0.0
 10
160.225027
 20
148.994759
 30
0.0
 10
166.897155
 20
175.824948
 30
0.0
  0
LWPOLYLINE
  5
115
100
AcDbEntity
  8
Vector
 62
7
100
AcDbPolyline
 90
1
 70
1
 10
332.180993
 20
338.326434
 30
0.0
  0
SPLINE
  5
116
100
AcDbEntity
  8
Vector
 62
7
100
AcDbSpline
 70
8
 71
3
 72
8
 73
4
 74
0
 40
0
 40
0
 40
0
 40
0
 40
1
 40
1
 40
1
 40
1
 10
134.126915
 20
175.824948
 30
0.0
 10
129.115521
 20
164.335662
 30
0.0
 10
118.836206
 20
156.288843
 30
0.0
 10
106.608315
 20
156.288843
 30
0.0
  0
SPLINE
  5
117
100
AcDbEntity
  8
Vector
 62
7
100
AcDbSpline
 70
8
 71
3
 72
8
 73
4
 74
0
 40
0
 40
0
 40
0
 40
0
 40
1
 40
1
 40
1
 40
1
 10
106.608315
 20
156.288843
 30
0.0
 10
89.477579
 20
156.288843
 30
0.0
 10
75.518599
 20
171.785120
 30
0.0
 10
75.518599
 20
190.949675
 30
0.0
  0
SPLINE
  5
118
100
AcDbEntity
  8
Vector
 62
7
100
AcDbSpline
 70
8
 71
3
 72
8
 73
4
 74
0
 40
0
 40
0
 40
0
 40
0
 40
1
 40
1
 40
1
 40
1
 10
75.518599
 20
190.949675
 30
0.0
 10
75.518599
 20
210.114229
 30
0.0
 10
89.477579
 20
225.610506
 30
0.0
 10
106.608315
 20
225.610506
 30
0.0
  0
SPLINE
  5
119
100
AcDbEntity
  8
Vector
 62
7
100
AcDbSpline
 70
8
 71
3
 72
8
 73
4
 74
0
 40
0
 40
0
 40
0
 40
0
 40
1
 40
1
 40
1
 40
1
 10
106.608315
 20
225.610506
 30
0.0
 10
119.520072
 20
225.610506
 30
0.0
 10
130.336793
 20
216.725899
 30
0.0
 10
134.967177
 20
204.183810
 30
0.0
  0
LWPOLYLINE
  5
11a
100
AcDbEntity
  8
Vector
 62
7
100
AcDbPolyline
 90
2
 70
0
 10
166.897155
 20
175.824948
 30
0.0
 10
134.126915
 20
175.824948
 30
0.0
  0
SPLINE
  5
11b
100
AcDbEntity
  8
Vector
 62
7
100
AcDbSpline
 70
8
 71
3
 72
8
 73
4
 74
0
 40
0
 40
0
 40
0
 40
0
 40
1
 40
1
 40
1
 40
1
 10
167.317287
 20
204.183810
 30
0.0
 10
161.187880
 20
231.725958
 30
0.0
 10
136.653994
 20
252.288843
 30
0.0
 10
107.238512
 20
252.288843
 30
0.0
  0
LWPOLYLINE
  5
11c
100
AcDbEntity
  8
Vector
 62
7
100
AcDbPolyline
 90
2
 70
0
 10
134.967177
 20
204.183810
 30
0.0
 10
167.317287
 20
204.183810
 30
0.0
  0
LWPOLYLINE
  5
11d
100
AcDbEntity
  8
Vector
 62
7
100
AcDbPolyline
 90
1
 70
1
 10
107.238512
 20
252.288843
 30
0.0
  0
SPLINE
  5
11e
100
AcDbEntity
  8
Vector
 62
7
100
AcDbSpline
 70
8
 71
3
 72
8
 73
4
 74
0
 40
0
 40
0
 40
0
 40
0
 40
1
 40
1
 40
1
 40
1
 10
11.658643
 20
249.768056
 30
0.0
 10
6.571881
 20
234.138257
 30
0.0
 10
3.283125
 20
217.513857
 30
0.0
 10
2.415754
 20
200.402629
 30
0.0
  0
LWPOLYLINE
  5
11f
100
AcDbEntity
  8
Vector
 62
7
100
AcDbPolyline
 90
9
 70
1
 10
166.688770
 20
249.347924
 30
0.0
 10
166.688770
 20
223.089719
 30
0.0
 10
189.795991
 20
223.089719
 30
0.0
 10
189.795991
 20
132.341360
 30
0.0
 10
218.995116
 20
132.341360
 30
0.0
 10
218.995116
 20
223.089719
 30
0.0
 10
242.732534
 20
223.089719
 30
0.0
 10
242.732534
 20
249.347924
 30
0.0
 10
166.688770
 20
249.347924
 30
0.0
  0
SPLINE
  5
120
100
AcDbEntity
  8
Vector
 62
7
100
AcDbSpline
 70
8
 71
3
 72
8
 73
4
 74
0
 40
0
 40
0
 40
0
 40
0
 40
1
 40
1
 40
1
 40
1
 10
2.415754
 20
180.866524
 30
0.0
 10
3.274887
 20
163.917816
 30
0.0
 10
6.447109
 20
147.629292
 30
0.0
 10
11.448577
 20
132.131294
 30
0.0
  0
LWPOLYLINE
  5
121
100
AcDbEntity
  8
Vector
 62
7
100
AcDbPolyline
 90
2
 70
0
 10
2.415754
 20
200.402629
 30
0.0
 10
2.415754
 20
180.866524
 30
0.0
  0
SPLINE
  5
122
100
AcDbEntity
  8
Vector
 62
7
100
AcDbSpline
 70
8
 71
3
 72
8
 73
4
 74
0
 40
0
 40
0
 40
0
 40
0
 40
1
 40
1
 40
1
 40
1
 10
40.857768
 20
132.131294
 30
0.0
 10
34.900090
 20
150.597348
 30
0.0
 10
31.824945
 20
170.291328
 30
0.0
 10
31.824945
 20
190.739609
 30
0.0
  0
SPLINE
  5
123
100
AcDbEntity
  8
Vector
 62
7
100
AcDbSpline
 70
8
 71
3
 72
8
 73
4
 74
0
 40
0
 40
0
 40
0
 40
0
 40
1
 40
1
 40
1
 40
1
 10
31.824945
 20
190.739609
 30
0.0
 10
31.824945
 20
211.351714
 30
0.0
 10
35.018210
 20
231.173959
 30
0.0
 10
41.067833
 20
249.768056
 30
0.0
  0
LWPOLYLINE
  5
124
100
AcDbEntity
  8
Vector
 62
7
100
AcDbPolyline
 90
2
 70
0
 10
11.448577
 20
132.131294
 30
0.0
 10
40.857768
 20
132.131294
 30
0.0
  0
LWPOLYLINE
  5
125
100
AcDbEntity
  8
Vector
 62
7
100
AcDbPolyline
 90
3
 70
0
 10
41.067833
 20
249.768056
 30
0.0
 10
11.658643
 20
249.768056
 30
0.0
 10
11.658643
 20
249.768056
 30
0.0
  0
SPLINE
  5
126
100
AcDbEntity
  8
Vector
 62
7
100
AcDbSpline
 70
8
 71
3
 72
8
 73
4
 74
0
 40
0
 40
0
 40
0
 40
0
 40
1
 40
1
 40
1
 40
1
 10
282.223195
 20
132.131294
 30
0.0
 10
282.382576
 20
144.874521
 30
0.0
 10
282.036186
 20
157.626037
 30
0.0
 10
282.459141
 20
170.363241
 30
0.0
  0
LWPOLYLINE
  5
127
100
AcDbEntity
  8
Vector
 62
7
100
AcDbPolyline
 90
4
 70
0
 10
253.864333
 20
249.347924
 30
0.0
 10
253.864333
 20
209.855583
 30
0.0
 10
253.864333
 20
132.131294
 30
0.0
 10
282.223195
 20
132.131294
 30
0.0
  0
SPLINE
  5
128
100
AcDbEntity
  8
Vector
 62
7
100
AcDbSpline
 70
8
 71
3
 72
8
 73
4
 74
0
 40
0
 40
0
 40
0
 40
0
 40
1
 40
1
 40
1
 40
1
 10
302.809608
 20
170.363241
 30
0.0
 10
324.694536
 20
170.363241
 30
0.0
 10
342.301950
 20
187.970655
 30
0.0
 10
342.301950
 20
209.855583
 30
0.0
  0
SPLINE
  5
129
100
AcDbEntity
  8
Vector
 62
7
100
AcDbSpline
 70
8
 71
3
 72
8
 73
4
 74
0
 40
0
 40
0
 40
0
 40
0
 40
1
 40
1
 40
1
 40
1
 10
342.301950
 20
209.855583
 30
0.0
 10
342.301950
 20
231.740511
 30
0.0
 10
324.694536
 20
249.347924
 30
0.0
 10
302.809608
 20
249.347924
 30
0.0
  0
SPLINE
  5
12a
100
AcDbEntity
  8
Vector
 62
7
100
AcDbSpline
 70
8
 71
3
 72
8
 73
4
 74
0
 40
0
 40
0
 40
0
 40
0
 40
1
 40
1
 40
1
 40
1
 10
302.809608
 20
249.347924
 30
0.0
 10
286.508003
 20
248.834087
 30
0.0
 10
270.289571
 20
249.347924
 30
0.0
 10
253.864313
 20
249.347924
 30
0.0
  0
LWPOLYLINE
  5
12b
100
AcDbEntity
  8
Vector
 62
7
100
AcDbPolyline
 90
2
 70
0
 10
282.459141
 20
170.363241
 30
0.0
 10
302.809608
 20
170.363241
 30
0.0
  0
LWPOLYLINE
  5
12c
100
AcDbEntity
  8
Vector
 62
7
100
AcDbPolyline
 90
1
 70
1
 10
253.864313
 20
249.347924
 30
0.0
  0
SPLINE
  5
12d
100
AcDbEntity
  8
Vector
 62
7
100
AcDbSpline
 70
8
 71
3
 72
8
 73
4
 74
0
 40
0
 40
0
 40
0
 40
0
 40
1
 40
1
 40
1
 40
1
 10
299.448578
 20
223.929981
 30
0.0
 10
307.210722
 20
223.929981
 30
0.0
 10
313.522976
 20
217.617727
 30
0.0
 10
313.522976
 20
209.855583
 30
0.0
  0
SPLINE
  5
12e
100
AcDbEntity
  8
Vector
 62
7
100
AcDbSpline
 70
8
 71
3
 72
8
 73
4
 74
0
 40
0
 40
0
 40
0
 40
0
 40
1
 40
1
 40
1
 40
1
 10
313.522976
 20
209.855583
 30
0.0
 10
313.522976
 20
202.093439
 30
0.0
 10
307.210722
 20
195.781185
 30
0.0
 10
299.448578
 20
195.781185
 30
0.0
  0
LWPOLYLINE
  5
12f
100
AcDbEntity
  8
Vector
 62
7
100
AcDbPolyline
 90
2
 70
0
 10
282.223195
 20
223.929981
 30
0.0
 10
299.448578
 20
223.929981
 30
0.0
  0
LWPOLYLINE
  5
130
100
AcDbEntity
  8
Vector
 62
7
100
AcDbPolyline
 90
3
 70
0
 10
299.448578
 20
195.781185
 30
0.0
 10
282.223195
 20
195.781185
 30
0.0
 10
282.223195
 20
223.929981
 30
0.0
  0
ENDSEC
  0
SECTION
  2
OBJECTS
  0
DICTIONARY
  5
C
330
0
100
AcDbDictionary
  3
ACAD_GROUP
350
D
  3
ACAD_MLINESTYLE
350
17
  0
DICTIONARY
  5
D
330
C
100
AcDbDictionary
  0
DICTIONARY
  5
1A
330
C
100
AcDbDictionary
  0
DICTIONARY
  5
17
330
C
100
AcDbDictionary
  3
STANDARD
350
18
  0
DICTIONARY
  5
19
330
C
100
AcDbDictionary
  0
ENDSEC
  0
EOF
